<?xml version="1.0" encoding="UTF-8" standalone="no"?>
<!-- Created with Inkscape (http://www.inkscape.org/) -->

<svg xmlns:dc="http://purl.org/dc/elements/1.1/" xmlns:cc="http://creativecommons.org/ns#" xmlns:rdf="http://www.w3.org/1999/02/22-rdf-syntax-ns#" xmlns:svg="http://www.w3.org/2000/svg" xmlns="http://www.w3.org/2000/svg" xmlns:xlink="http://www.w3.org/1999/xlink" xmlns:sodipodi="http://sodipodi.sourceforge.net/DTD/sodipodi-0.dtd" xmlns:inkscape="http://www.inkscape.org/namespaces/inkscape" id="SVGRoot" version="1.1" inkscape:version="0.92+devel (78cebbf91, 2017-07-21, custom)" width="24px" height="24px" viewBox="0 0 24 24" sodipodi:docname="align-vertical-bottom.svg">
  <sodipodi:namedview id="base" pagecolor="#ffffff" bordercolor="#666666" borderopacity="1.0" inkscape:pageopacity="0.0" inkscape:pageshadow="2" inkscape:zoom="10.6666666667" inkscape:cx="12.0" inkscape:cy="12.0" inkscape:document-units="px" inkscape:current-layer="al_bottom_in" inkscape:document-rotation="0" showgrid="false" inkscape:grid-bbox="true" />
  <defs id="defs13219">
    <radialGradient id="radialGradient12327" inkscape:collect="always" xlink:href="#linearGradient10735" r="8" cx="83.242722" cy="228" gradientUnits="userSpaceOnUse" gradientTransform="translate(-32,0.0010986)" fx="83.242722" fy="228" />
    <linearGradient id="linearGradient10735">
      <stop id="stop10737" style="stop-color:#c0c0c0;stop-opacity:0" offset="0" />
      <stop id="stop10739" style="stop-color:#c0c0c0;stop-opacity:0" offset="1" />
    </linearGradient>
    <linearGradient id="linearGradient12329" inkscape:collect="always" xlink:href="#linearGradient11207" x1="1469" y1="34.499969" x2="1482" y2="34.499969" gradientUnits="userSpaceOnUse" gradientTransform="matrix(1.375009,0,0,1.165805,35.70335,-32.25885)" />
    <linearGradient id="linearGradient11207">
      <stop id="stop11209" style="stop-color:#d3d7cf;stop-opacity:1" offset="0" />
      <stop id="stop11211" style="stop-color:#d3d7cf;stop-opacity:1" offset="1" />
    </linearGradient>
    <linearGradient id="linearGradient12331" inkscape:collect="always" xlink:href="#linearGradient11215" x1="1469" y1="34.499969" x2="1482" y2="34.499969" gradientUnits="userSpaceOnUse" gradientTransform="matrix(1.375009,0,0,1.165805,35.70335,-32.25885)" />
    <linearGradient id="linearGradient11215">
      <stop id="stop11217" style="stop-color:#888a85;stop-opacity:1" offset="0" />
      <stop id="stop11219" style="stop-color:#888a85;stop-opacity:1" offset="1" />
    </linearGradient>
    <linearGradient id="linearGradient12333" inkscape:collect="always" xlink:href="#linearGradient11201" x1="1470" y1="34.499981" x2="1481" y2="34.499981" gradientUnits="userSpaceOnUse" gradientTransform="matrix(1.666668,0,0,1.249957,65.60815,-48.38193)" />
    <linearGradient id="linearGradient11201">
      <stop id="stop11203" style="stop-color:#ffffff;stop-opacity:1" offset="0" />
      <stop id="stop11205" style="stop-color:#ffffff;stop-opacity:1" offset="1" />
    </linearGradient>
    <linearGradient id="linearGradient12335" inkscape:collect="always" xlink:href="#linearGradient11207" x1="1469" y1="34.499969" x2="1482" y2="34.499969" gradientUnits="userSpaceOnUse" gradientTransform="matrix(1.500004,0,0,1.399984,46.76725,-78.42449)" />
    <linearGradient id="linearGradient12337" inkscape:collect="always" xlink:href="#linearGradient11215" x1="1469" y1="34.499969" x2="1482" y2="34.499969" gradientUnits="userSpaceOnUse" gradientTransform="matrix(1.500004,0,0,1.399984,46.76725,-78.42449)" />
    <linearGradient id="linearGradient12339" inkscape:collect="always" xlink:href="#linearGradient11201" x1="1470" y1="34.499981" x2="1481" y2="34.499981" gradientUnits="userSpaceOnUse" gradientTransform="matrix(1.579161,0,0,1.666617,54.74778,-129.3683)" />
    <linearGradient id="linearGradient12344" inkscape:collect="always" xlink:href="#linearGradient12319" x1="187.5" y1="491.49991" x2="187.5" y2="470.49991" gradientUnits="userSpaceOnUse" />
    <linearGradient id="linearGradient12319">
      <stop id="stop12321" style="stop-color:#ce5c00;stop-opacity:0" offset="0" />
      <stop id="stop12329" style="stop-color:#ce5c00;stop-opacity:1" offset="0.09044679" />
      <stop id="stop12327" style="stop-color:#ce5c00;stop-opacity:1" offset="0.90803826" />
      <stop id="stop12323" style="stop-color:#ce5c00;stop-opacity:0" offset="1" />
    </linearGradient>
    <linearGradient id="linearGradient12347" inkscape:collect="always" xlink:href="#linearGradient12306" x1="145" y1="1352.5" x2="167" y2="1352.5" gradientUnits="userSpaceOnUse" gradientTransform="translate(0,-4)" />
    <linearGradient id="linearGradient12306">
      <stop id="stop12308" style="stop-color:#fcaf3e;stop-opacity:0" offset="0" />
      <stop id="stop12317" style="stop-color:#fcaf3e;stop-opacity:1" offset="0.08843765" />
      <stop id="stop12315" style="stop-color:#fcaf3e;stop-opacity:1" offset="0.90803868" />
      <stop id="stop12310" style="stop-color:#fcaf3e;stop-opacity:0" offset="1" />
    </linearGradient>
    <linearGradient id="linearGradient13338" inkscape:collect="always" xlink:href="#linearGradient12319" x1="187.5" y1="491.49991" x2="187.5" y2="470.49991" gradientUnits="userSpaceOnUse" />
  </defs>
  <metadata id="metadata13222">
    <rdf:RDF>
      <cc:Work rdf:about="">
        <dc:format>image/svg+xml</dc:format>
        <dc:type rdf:resource="http://purl.org/dc/dcmitype/StillImage" />
        <dc:title></dc:title>
      </cc:Work>
    </rdf:RDF>
  </metadata>
  <g inkscape:label="Layer 1" id="layer1" inkscape:groupmode="layer">
    <g id="al_bottom_in" style="display:inline" transform="translate(-144,-1328)">
      <rect id="rect12305" style="fill:url(#radialGradient12327);fill-opacity:1;fill-rule:nonzero;stroke:none;stroke-opacity:1;stroke-width:1;stroke-linecap:round;stroke-linejoin:miter;stroke-miterlimit:4;stroke-dasharray:none;stroke-dashoffset:0;display:inline;visibility:visible" width="24" height="24" transform="rotate(90)" x="1328" y="-168" />
      <g id="g12311" style="fill:#eeeeec;stroke:#555753;stroke-width:0.89520168;display:inline" transform="matrix(0,1.247838,-0.998006,0,351.6843,1471.302)">
        <rect id="rect12307" style="opacity:1;fill:url(#linearGradient12329);fill-opacity:1;fill-rule:evenodd;stroke:url(#linearGradient12331);stroke-opacity:1;stroke-width:0.89609557;stroke-linecap:butt;stroke-linejoin:round;stroke-miterlimit:0;stroke-dasharray:none;stroke-dashoffset:0;display:inline;visibility:visible" width="9.6165075" height="7.013978" x="-108.0285" y="187.5583" />
        <rect id="rect12309" style="opacity:1;fill:none;fill-opacity:1;fill-rule:evenodd;stroke:url(#linearGradient12333);stroke-opacity:1;stroke-width:0.89609522;stroke-linecap:round;stroke-linejoin:miter;stroke-miterlimit:2;stroke-dasharray:none;stroke-dashoffset:0;display:inline;visibility:visible" width="8.7423258" height="5.0098138" x="-107.1543" y="188.5605" rx="0" ry="0" />
      </g>
      <g id="g12317" style="fill:#eeeeec;stroke:#555753;stroke-width:0.99792773;display:inline" transform="matrix(0,1.004157,-0.998006,0,339.6843,1442.423)">
        <rect id="rect12313" style="opacity:1;fill:url(#linearGradient12335);fill-opacity:1;fill-rule:evenodd;stroke:url(#linearGradient12337);stroke-opacity:1;stroke-width:0.99892437;stroke-linecap:butt;stroke-linejoin:round;stroke-miterlimit:0;stroke-dasharray:none;stroke-dashoffset:0;display:inline;visibility:visible" width="17.925461" height="7.0139952" x="-111.4592" y="185.55431" />
        <rect id="rect12315" style="opacity:1;fill:none;fill-opacity:1;fill-rule:evenodd;stroke:url(#linearGradient12339);stroke-opacity:1;stroke-width:0.99892378;stroke-linecap:round;stroke-linejoin:miter;stroke-miterlimit:2;stroke-dasharray:none;stroke-dashoffset:0;display:inline;visibility:visible" width="15.72629" height="5.0099978" x="-110.2558" y="186.5563" rx="0" ry="0" />
      </g>
      <g id="g12321" style="fill:url(#linearGradient12344);fill-opacity:1;stroke:none" transform="matrix(0,1.499909,-1.047619,0,659.9044,1065.767)">
        <rect id="rect12319" style="fill:url(#linearGradient13338);fill-opacity:1;stroke:none;stroke-opacity:1;stroke-width:1.00000095;stroke-linecap:round;stroke-linejoin:round;stroke-miterlimit:4;stroke-dasharray:none;stroke-dashoffset:0" width="2.0001221" height="21" x="187.5" y="470.49991" />
      </g>
      <path id="path12323" style="opacity:1;fill:#fcaf3e;fill-opacity:1;fill-rule:evenodd;stroke:url(#linearGradient12347);stroke-opacity:1;stroke-width:1;stroke-linecap:square;stroke-linejoin:round;stroke-miterlimit:4;stroke-dasharray:none;stroke-dashoffset:0;marker:none;marker-end:none;marker-mid:none;marker-start:none;display:inline;visibility:visible" d="m 145.5,1348.5 h 21" inkscape:connector-curvature="0" sodipodi:nodetypes="cc" />
    </g>
  </g>
</svg>
