<?xml version="1.0" encoding="UTF-8" standalone="no"?>
<!-- Created with Inkscape (http://www.inkscape.org/) -->

<svg xmlns:dc="http://purl.org/dc/elements/1.1/" xmlns:cc="http://creativecommons.org/ns#" xmlns:rdf="http://www.w3.org/1999/02/22-rdf-syntax-ns#" xmlns:svg="http://www.w3.org/2000/svg" xmlns="http://www.w3.org/2000/svg" xmlns:xlink="http://www.w3.org/1999/xlink" xmlns:sodipodi="http://sodipodi.sourceforge.net/DTD/sodipodi-0.dtd" xmlns:inkscape="http://www.inkscape.org/namespaces/inkscape" id="SVGRoot" version="1.1" inkscape:version="0.92+devel (78cebbf91, 2017-07-21, custom)" width="24px" height="24px" viewBox="0 0 24 24" sodipodi:docname="distribute-horizontal-center.svg">
  <sodipodi:namedview id="base" pagecolor="#ffffff" bordercolor="#666666" borderopacity="1.0" inkscape:pageopacity="0.0" inkscape:pageshadow="2" inkscape:zoom="10.6666666667" inkscape:cx="12.0" inkscape:cy="12.0" inkscape:document-units="px" inkscape:current-layer="distribute_hcentre" inkscape:document-rotation="0" showgrid="false" inkscape:grid-bbox="true" />
  <defs id="defs14395">
    <radialGradient id="radialGradient12620" inkscape:collect="always" xlink:href="#linearGradient10735" r="8" cx="83.242722" cy="228" gradientUnits="userSpaceOnUse" gradientTransform="translate(-1264.01,1568)" fx="83.242722" fy="228" />
    <linearGradient id="linearGradient10735">
      <stop id="stop10737" style="stop-color:#c0c0c0;stop-opacity:0" offset="0" />
      <stop id="stop10739" style="stop-color:#c0c0c0;stop-opacity:0" offset="1" />
    </linearGradient>
    <linearGradient id="linearGradient12622" inkscape:collect="always" xlink:href="#linearGradient11207" x1="1469" y1="34.499969" x2="1482" y2="34.499969" gradientUnits="userSpaceOnUse" gradientTransform="matrix(1.715811,0,0,1.329694,1632.856,-368.2192)" />
    <linearGradient id="linearGradient11207">
      <stop id="stop11209" style="stop-color:#d3d7cf;stop-opacity:1" offset="0" />
      <stop id="stop11211" style="stop-color:#d3d7cf;stop-opacity:1" offset="1" />
    </linearGradient>
    <linearGradient id="linearGradient12624" inkscape:collect="always" xlink:href="#linearGradient11215" x1="1469" y1="34.499969" x2="1482" y2="34.499969" gradientUnits="userSpaceOnUse" gradientTransform="matrix(1.715811,0,0,1.329694,1632.856,-368.2192)" />
    <linearGradient id="linearGradient11215">
      <stop id="stop11217" style="stop-color:#888a85;stop-opacity:1" offset="0" />
      <stop id="stop11219" style="stop-color:#888a85;stop-opacity:1" offset="1" />
    </linearGradient>
    <linearGradient id="linearGradient12626" inkscape:collect="always" xlink:href="#linearGradient11201" x1="1470" y1="34.499981" x2="1481" y2="34.499981" gradientUnits="userSpaceOnUse" gradientTransform="matrix(1.906435,0,0,1.497007,1652.116,-400.2733)" />
    <linearGradient id="linearGradient11201">
      <stop id="stop11203" style="stop-color:#ffffff;stop-opacity:1" offset="0" />
      <stop id="stop11205" style="stop-color:#ffffff;stop-opacity:1" offset="1" />
    </linearGradient>
    <linearGradient id="linearGradient12628" inkscape:collect="always" xlink:href="#linearGradient11207" x1="1469" y1="34.499969" x2="1482" y2="34.499969" gradientUnits="userSpaceOnUse" gradientTransform="matrix(1.506242,0,0,1.59679,1607.884,-408.1882)" />
    <linearGradient id="linearGradient12630" inkscape:collect="always" xlink:href="#linearGradient11215" x1="1469" y1="34.499969" x2="1482" y2="34.499969" gradientUnits="userSpaceOnUse" gradientTransform="matrix(1.506242,0,0,1.59679,1607.884,-408.1882)" />
    <linearGradient id="linearGradient12632" inkscape:collect="always" xlink:href="#linearGradient11201" x1="1470" y1="34.499981" x2="1481" y2="34.499981" gradientUnits="userSpaceOnUse" gradientTransform="matrix(1.606646,0,0,1.995947,1617.775,-484.8525)" />
    <linearGradient id="linearGradient12634" inkscape:collect="always" xlink:href="#linearGradient12306" x1="96" y1="1353.5" x2="118.0001" y2="1353.5" gradientUnits="userSpaceOnUse" gradientTransform="rotate(-90,157.5,1409.5)" />
    <linearGradient id="linearGradient12306">
      <stop id="stop12308" style="stop-color:#fcaf3e;stop-opacity:0" offset="0" />
      <stop id="stop12317" style="stop-color:#fcaf3e;stop-opacity:1" offset="0.08843765" />
      <stop id="stop12315" style="stop-color:#fcaf3e;stop-opacity:1" offset="0.90803868" />
      <stop id="stop12310" style="stop-color:#fcaf3e;stop-opacity:0" offset="1" />
    </linearGradient>
    <linearGradient id="linearGradient12636" inkscape:collect="always" xlink:href="#linearGradient12319" x1="96" y1="1353.5" x2="118.0001" y2="1353.5" gradientUnits="userSpaceOnUse" gradientTransform="rotate(-90,157.5,1409.5)" />
    <linearGradient id="linearGradient12319">
      <stop id="stop12321" style="stop-color:#ce5c00;stop-opacity:0" offset="0" />
      <stop id="stop12329" style="stop-color:#ce5c00;stop-opacity:1" offset="0.09044679" />
      <stop id="stop12327" style="stop-color:#ce5c00;stop-opacity:1" offset="0.90803826" />
      <stop id="stop12323" style="stop-color:#ce5c00;stop-opacity:0" offset="1" />
    </linearGradient>
    <linearGradient id="linearGradient14518" inkscape:collect="always" xlink:href="#linearGradient12306" x1="96" y1="1353.5" x2="118.0001" y2="1353.5" gradientUnits="userSpaceOnUse" gradientTransform="rotate(-90,157.5,1409.5)" />
    <linearGradient id="linearGradient14520" inkscape:collect="always" xlink:href="#linearGradient12319" x1="96" y1="1353.5" x2="118.0001" y2="1353.5" gradientUnits="userSpaceOnUse" gradientTransform="rotate(-90,157.5,1409.5)" />
  </defs>
  <metadata id="metadata14398">
    <rdf:RDF>
      <cc:Work rdf:about="">
        <dc:format>image/svg+xml</dc:format>
        <dc:type rdf:resource="http://purl.org/dc/dcmitype/StillImage" />
        <dc:title></dc:title>
      </cc:Work>
    </rdf:RDF>
  </metadata>
  <g inkscape:label="Layer 1" id="layer1" inkscape:groupmode="layer">
    <g id="distribute_hcentre" style="display:inline" transform="translate(-96,-1448)">
      <rect id="rect12837" style="fill:url(#radialGradient12620);fill-opacity:1;fill-rule:nonzero;stroke:none;stroke-opacity:1;stroke-width:1;stroke-linecap:round;stroke-linejoin:miter;stroke-miterlimit:4;stroke-dasharray:none;stroke-dashoffset:0;display:inline;visibility:visible" width="24" height="24" x="96" y="1448" />
      <rect id="rect12841" style="fill:url(#linearGradient12622);fill-opacity:1;fill-rule:evenodd;stroke:url(#linearGradient12624);stroke-opacity:1;stroke-width:0.99999988;stroke-linecap:butt;stroke-linejoin:round;stroke-miterlimit:0;stroke-dasharray:none;stroke-dashoffset:0;display:inline;visibility:visible" width="12" height="8.0000076" transform="rotate(90)" x="1453.5" y="-117.5" />
      <rect id="rect12843" style="fill:none;fill-opacity:1;fill-rule:evenodd;stroke:url(#linearGradient12626);stroke-opacity:1;stroke-width:0.9999994;stroke-linecap:round;stroke-linejoin:miter;stroke-miterlimit:2;stroke-dasharray:none;stroke-dashoffset:0;display:inline;visibility:visible" width="10" height="5.9999871" transform="rotate(90)" x="1454.5" y="-116.5" rx="0" ry="0" />
      <rect id="rect12847" style="fill:url(#linearGradient12628);fill-opacity:1;fill-rule:evenodd;stroke:url(#linearGradient12630);stroke-opacity:1;stroke-width:1;stroke-linecap:butt;stroke-linejoin:round;stroke-miterlimit:0;stroke-dasharray:none;stroke-dashoffset:0;display:inline;visibility:visible" width="18" height="8.0000029" transform="rotate(90)" x="1450.5" y="-105.5" />
      <rect id="rect12849" style="fill:none;fill-opacity:1;fill-rule:evenodd;stroke:url(#linearGradient12632);stroke-opacity:1;stroke-width:0.9999994;stroke-linecap:round;stroke-linejoin:miter;stroke-miterlimit:2;stroke-dasharray:none;stroke-dashoffset:0;display:inline;visibility:visible" width="16" height="5.9999928" transform="rotate(90)" x="1451.5" y="-104.5" rx="0" ry="0" />
      <g id="g13084" transform="translate(12)">
        <path id="path12851" style="fill:url(#linearGradient14518);fill-opacity:1;stroke:url(#linearGradient14520);stroke-opacity:1;stroke-width:1.00000012;stroke-linecap:round;stroke-linejoin:round;stroke-miterlimit:4;stroke-dashoffset:0" d="M 100.4999,1453.5 H 102.5 v 3 h -2.0001 z m 0,5 H 102.5 v 3 h -2.0001 z m 0,5 H 102.5 v 3 h -2.0001 z m 0,5 H 102.5 v 2 h -2.0001 z m 0,-19 H 102.5 v 2 h -2.0001 z" inkscape:connector-curvature="0" />
      </g>
      <g id="g13100">
        <path id="path13102" style="fill:url(#linearGradient12634);fill-opacity:1;stroke:url(#linearGradient12636);stroke-opacity:1;stroke-width:1.00000012;stroke-linecap:round;stroke-linejoin:round;stroke-miterlimit:4;stroke-dashoffset:0" d="M 100.4999,1453.5 H 102.5 v 3 h -2.0001 z m 0,5 H 102.5 v 3 h -2.0001 z m 0,5 H 102.5 v 3 h -2.0001 z m 0,5 H 102.5 v 2 h -2.0001 z m 0,-19 H 102.5 v 2 h -2.0001 z" inkscape:connector-curvature="0" />
      </g>
    </g>
  </g>
</svg>
