<?xml version="1.0" encoding="UTF-8" standalone="no"?>
<!-- Created with Inkscape (http://www.inkscape.org/) -->

<svg xmlns:dc="http://purl.org/dc/elements/1.1/" xmlns:cc="http://creativecommons.org/ns#" xmlns:rdf="http://www.w3.org/1999/02/22-rdf-syntax-ns#" xmlns:svg="http://www.w3.org/2000/svg" xmlns="http://www.w3.org/2000/svg" xmlns:xlink="http://www.w3.org/1999/xlink" xmlns:sodipodi="http://sodipodi.sourceforge.net/DTD/sodipodi-0.dtd" xmlns:inkscape="http://www.inkscape.org/namespaces/inkscape" id="SVGRoot" version="1.1" inkscape:version="0.92+devel (78cebbf91, 2017-07-21, custom)" width="24px" height="24px" viewBox="0 0 24 24" sodipodi:docname="distribute-horizontal-left.svg">
  <sodipodi:namedview id="base" pagecolor="#ffffff" bordercolor="#666666" borderopacity="1.0" inkscape:pageopacity="0.0" inkscape:pageshadow="2" inkscape:zoom="10.6666666667" inkscape:cx="12.0" inkscape:cy="12.0" inkscape:document-units="px" inkscape:current-layer="distribute_left" inkscape:document-rotation="0" showgrid="false" inkscape:grid-bbox="true" />
  <defs id="defs14141">
    <radialGradient id="radialGradient12642" inkscape:collect="always" xlink:href="#linearGradient10735" r="8" cx="83.242722" cy="228" gradientUnits="userSpaceOnUse" gradientTransform="translate(-1432,-1303.999)" fx="83.242722" fy="228" />
    <linearGradient id="linearGradient10735">
      <stop id="stop10737" style="stop-color:#c0c0c0;stop-opacity:0" offset="0" />
      <stop id="stop10739" style="stop-color:#c0c0c0;stop-opacity:0" offset="1" />
    </linearGradient>
    <linearGradient id="linearGradient12644" inkscape:collect="always" xlink:href="#linearGradient11207" x1="1469" y1="34.499969" x2="1482" y2="34.499969" gradientUnits="userSpaceOnUse" gradientTransform="matrix(1.143874,0,0,1.994538,49.07094,-1841.578)" />
    <linearGradient id="linearGradient11207">
      <stop id="stop11209" style="stop-color:#d3d7cf;stop-opacity:1" offset="0" />
      <stop id="stop11211" style="stop-color:#d3d7cf;stop-opacity:1" offset="1" />
    </linearGradient>
    <linearGradient id="linearGradient12646" inkscape:collect="always" xlink:href="#linearGradient11215" x1="1469" y1="34.499969" x2="1482" y2="34.499969" gradientUnits="userSpaceOnUse" gradientTransform="matrix(1.143874,0,0,1.994538,49.07094,-1841.578)" />
    <linearGradient id="linearGradient11215">
      <stop id="stop11217" style="stop-color:#888a85;stop-opacity:1" offset="0" />
      <stop id="stop11219" style="stop-color:#888a85;stop-opacity:1" offset="1" />
    </linearGradient>
    <linearGradient id="linearGradient12649" inkscape:collect="always" xlink:href="#linearGradient11201" x1="1470" y1="34.499981" x2="1481" y2="34.499981" gradientUnits="userSpaceOnUse" gradientTransform="matrix(1.143861,0,0,2.494986,49.06967,-1937.451)" />
    <linearGradient id="linearGradient11201">
      <stop id="stop11203" style="stop-color:#ffffff;stop-opacity:1" offset="0" />
      <stop id="stop11205" style="stop-color:#ffffff;stop-opacity:1" offset="1" />
    </linearGradient>
    <linearGradient id="linearGradient12652" inkscape:collect="always" xlink:href="#linearGradient11207" x1="1469" y1="34.499969" x2="1482" y2="34.499969" gradientUnits="userSpaceOnUse" gradientTransform="matrix(1.50624,0,0,1.596791,1609.384,-359.5884)" />
    <linearGradient id="linearGradient12654" inkscape:collect="always" xlink:href="#linearGradient11215" x1="1469" y1="34.499969" x2="1482" y2="34.499969" gradientUnits="userSpaceOnUse" gradientTransform="matrix(1.50624,0,0,1.596791,1609.384,-359.5884)" />
    <linearGradient id="linearGradient12656" inkscape:collect="always" xlink:href="#linearGradient11201" x1="1470" y1="34.499981" x2="1481" y2="34.499981" gradientUnits="userSpaceOnUse" gradientTransform="matrix(1.606649,0,0,1.995952,1619.376,-435.8534)" />
    <linearGradient id="linearGradient12660" inkscape:collect="always" xlink:href="#linearGradient12319" x1="187.5" y1="491.49991" x2="187.5" y2="470.49991" gradientUnits="userSpaceOnUse" />
    <linearGradient id="linearGradient12319">
      <stop id="stop12321" style="stop-color:#ce5c00;stop-opacity:0" offset="0" />
      <stop id="stop12329" style="stop-color:#ce5c00;stop-opacity:1" offset="0.09044679" />
      <stop id="stop12327" style="stop-color:#ce5c00;stop-opacity:1" offset="0.90803826" />
      <stop id="stop12323" style="stop-color:#ce5c00;stop-opacity:0" offset="1" />
    </linearGradient>
    <linearGradient id="linearGradient12662" inkscape:collect="always" xlink:href="#linearGradient12306" x1="145" y1="1352.5" x2="167" y2="1352.5" gradientUnits="userSpaceOnUse" gradientTransform="rotate(90,49.5,1353.5)" />
    <linearGradient id="linearGradient12306">
      <stop id="stop12308" style="stop-color:#fcaf3e;stop-opacity:0" offset="0" />
      <stop id="stop12317" style="stop-color:#fcaf3e;stop-opacity:1" offset="0.08843765" />
      <stop id="stop12315" style="stop-color:#fcaf3e;stop-opacity:1" offset="0.90803868" />
      <stop id="stop12310" style="stop-color:#fcaf3e;stop-opacity:0" offset="1" />
    </linearGradient>
    <linearGradient id="linearGradient12668" inkscape:collect="always" xlink:href="#linearGradient12306" x1="145" y1="1352.5" x2="167" y2="1352.5" gradientUnits="userSpaceOnUse" gradientTransform="rotate(90,55.5,1359.5)" />
    <linearGradient id="linearGradient14281" inkscape:collect="always" xlink:href="#linearGradient12319" x1="187.5" y1="491.49991" x2="187.5" y2="470.49991" gradientUnits="userSpaceOnUse" />
    <linearGradient id="linearGradient14283" inkscape:collect="always" xlink:href="#linearGradient12319" x1="187.5" y1="491.49991" x2="187.5" y2="470.49991" gradientUnits="userSpaceOnUse" />
    <linearGradient id="linearGradient14285" inkscape:collect="always" xlink:href="#linearGradient12319" x1="187.5" y1="491.49991" x2="187.5" y2="470.49991" gradientUnits="userSpaceOnUse" />
  </defs>
  <metadata id="metadata14144">
    <rdf:RDF>
      <cc:Work rdf:about="">
        <dc:format>image/svg+xml</dc:format>
        <dc:type rdf:resource="http://purl.org/dc/dcmitype/StillImage" />
        <dc:title></dc:title>
      </cc:Work>
    </rdf:RDF>
  </metadata>
  <g inkscape:label="Layer 1" id="layer1" inkscape:groupmode="layer">
    <g id="distribute_left" style="display:inline" transform="translate(-48,-1448)">
      <rect id="rect12814" style="fill:url(#radialGradient12642);fill-opacity:1;fill-rule:nonzero;stroke:none;stroke-opacity:1;stroke-width:1;stroke-linecap:round;stroke-linejoin:miter;stroke-miterlimit:4;stroke-dasharray:none;stroke-dashoffset:0;display:inline;visibility:visible" width="24" height="24" transform="scale(-1)" x="-72" y="-1472" />
      <rect id="rect12818" style="fill:url(#linearGradient12644);fill-opacity:1;fill-rule:evenodd;stroke:url(#linearGradient12646);stroke-opacity:1;stroke-width:1;stroke-linecap:butt;stroke-linejoin:round;stroke-miterlimit:0;stroke-dasharray:none;stroke-dashoffset:0;display:inline;visibility:visible" width="8" height="11.99999" transform="scale(-1)" x="-70.5" y="-1465.5" />
      <rect id="rect12821" style="fill:none;fill-opacity:1;fill-rule:evenodd;stroke:url(#linearGradient12649);stroke-opacity:1;stroke-width:0.99999958;stroke-linecap:round;stroke-linejoin:miter;stroke-miterlimit:2;stroke-dasharray:none;stroke-dashoffset:0;display:inline;visibility:visible" width="6" height="9.9998789" transform="scale(-1)" x="-69.5" y="-1464.5" rx="0" ry="0" />
      <rect id="rect12825" style="fill:url(#linearGradient12652);fill-opacity:1;fill-rule:evenodd;stroke:url(#linearGradient12654);stroke-opacity:1;stroke-width:1;stroke-linecap:butt;stroke-linejoin:round;stroke-miterlimit:0;stroke-dasharray:none;stroke-dashoffset:0;display:inline;visibility:visible" width="17.999969" height="8.0000076" transform="rotate(90)" x="1450.5" y="-58.500011" />
      <rect id="rect12827" style="fill:none;fill-opacity:1;fill-rule:evenodd;stroke:url(#linearGradient12656);stroke-opacity:1;stroke-width:0.99999952;stroke-linecap:round;stroke-linejoin:miter;stroke-miterlimit:2;stroke-dasharray:none;stroke-dashoffset:0;display:inline;visibility:visible" width="16.00004" height="6.0000081" transform="rotate(90)" x="1451.5" y="-57.500011" rx="0" ry="0" />
      <g id="g12829" style="fill:url(#linearGradient14283);fill-opacity:1;stroke:none" transform="matrix(-1.499909,0,0,-1.047619,333.2329,1963.904)">
        <rect id="rect12831" style="fill:url(#linearGradient14281);fill-opacity:1;stroke:none;stroke-opacity:1;stroke-width:1.00000095;stroke-linecap:round;stroke-linejoin:round;stroke-miterlimit:4;stroke-dasharray:none;stroke-dashoffset:0" width="2.0001221" height="21" x="187.5" y="470.49991" />
      </g>
      <path id="path12833" style="fill:#fcaf3e;fill-opacity:1;fill-rule:evenodd;stroke:url(#linearGradient12662);stroke-opacity:1;stroke-width:1;stroke-linecap:square;stroke-linejoin:round;stroke-miterlimit:4;stroke-dasharray:none;stroke-dashoffset:0;marker:none;marker-end:none;marker-mid:none;marker-start:none;display:inline;visibility:visible" d="m 50.5,1449.5 v 21" inkscape:connector-curvature="0" sodipodi:nodetypes="cc" />
      <g id="g12978" style="fill:url(#linearGradient12660);fill-opacity:1;stroke:none" transform="matrix(-1.499909,0,0,-1.047619,345.2329,1963.904)">
        <rect id="rect12980" style="fill:url(#linearGradient14285);fill-opacity:1;stroke:none;stroke-opacity:1;stroke-width:1.00000095;stroke-linecap:round;stroke-linejoin:round;stroke-miterlimit:4;stroke-dasharray:none;stroke-dashoffset:0" width="2.0001221" height="21" x="187.5" y="470.49991" />
      </g>
      <path id="path12982" style="fill:#fcaf3e;fill-opacity:1;fill-rule:evenodd;stroke:url(#linearGradient12668);stroke-opacity:1;stroke-width:1;stroke-linecap:square;stroke-linejoin:round;stroke-miterlimit:4;stroke-dasharray:none;stroke-dashoffset:0;marker:none;marker-end:none;marker-mid:none;marker-start:none;display:inline;visibility:visible" d="m 62.5,1449.5 v 21" inkscape:connector-curvature="0" sodipodi:nodetypes="cc" />
    </g>
  </g>
</svg>
