<?xml version="1.0" encoding="UTF-8" standalone="no"?>
<!-- Created with Inkscape (http://www.inkscape.org/) -->

<svg xmlns:dc="http://purl.org/dc/elements/1.1/" xmlns:cc="http://creativecommons.org/ns#" xmlns:rdf="http://www.w3.org/1999/02/22-rdf-syntax-ns#" xmlns:svg="http://www.w3.org/2000/svg" xmlns="http://www.w3.org/2000/svg" xmlns:xlink="http://www.w3.org/1999/xlink" xmlns:sodipodi="http://sodipodi.sourceforge.net/DTD/sodipodi-0.dtd" xmlns:inkscape="http://www.inkscape.org/namespaces/inkscape" id="SVGRoot" version="1.1" inkscape:version="0.92+devel (78cebbf91, 2017-07-21, custom)" width="16px" height="16px" viewBox="0 0 16 16" sodipodi:docname="document-export-ocal.svg">
  <sodipodi:namedview id="base" pagecolor="#ffffff" bordercolor="#666666" borderopacity="1.0" inkscape:pageopacity="0.0" inkscape:pageshadow="2" inkscape:zoom="16.0" inkscape:cx="8.0" inkscape:cy="8.0" inkscape:document-units="px" inkscape:current-layer="layer1" inkscape:document-rotation="0" showgrid="false" inkscape:grid-bbox="true">
    <inkscape:grid type="xygrid" id="grid15054" />
  </sodipodi:namedview>
  <defs id="defs14970">
    <radialGradient id="radialGradient8340" inkscape:collect="always" xlink:href="#linearGradient10735" r="8" cx="391" cy="279" gradientUnits="userSpaceOnUse" gradientTransform="translate(18.00001,145)" fx="391" fy="279" />
    <linearGradient id="linearGradient10735">
      <stop id="stop10737" style="stop-color:#c0c0c0;stop-opacity:0" offset="0" />
      <stop id="stop10739" style="stop-color:#c0c0c0;stop-opacity:0" offset="1" />
    </linearGradient>
    <filter id="filter9013" inkscape:collect="always">
      <feGaussianBlur id="feGaussianBlur9015" inkscape:collect="always" stdDeviation="0.18391043" />
    </filter>
    <filter id="filter9017" inkscape:collect="always">
      <feGaussianBlur id="feGaussianBlur9019" inkscape:collect="always" stdDeviation="0.18391042" />
    </filter>
    <filter id="filter9021" inkscape:collect="always">
      <feGaussianBlur id="feGaussianBlur9023" inkscape:collect="always" stdDeviation="0.18391042" />
    </filter>
    <radialGradient id="radialGradient9077" inkscape:collect="always" xlink:href="#linearGradient2591" r="16.9562" cx="35.292671" cy="20.49449" gradientUnits="userSpaceOnUse" gradientTransform="matrix(0,0.365851,-0.462389,0,18.49586,-1.72254)" fx="35.292671" fy="20.49449" />
    <linearGradient id="linearGradient2591">
      <stop id="stop2593" style="stop-color:#73d216" offset="0" />
      <stop id="stop2595" style="stop-color:#4e9a06" offset="1.0000000" />
    </linearGradient>
    <radialGradient id="radialGradient9079" inkscape:collect="always" xlink:href="#linearGradient8650" r="17.171419" cx="16.48324" cy="5.4143462" gradientUnits="userSpaceOnUse" gradientTransform="matrix(0,0.882016,0.692777,0,-1.192324,-12.0939)" fx="16.48324" fy="5.4143462" />
    <linearGradient id="linearGradient8650">
      <stop id="stop8652" style="stop-color:#ffffff;stop-opacity:1" offset="0" />
      <stop id="stop8654" style="stop-color:#ffffff;stop-opacity:0" offset="1" />
    </linearGradient>
  </defs>
  <metadata id="metadata14973">
    <rdf:RDF>
      <cc:Work rdf:about="">
        <dc:format>image/svg+xml</dc:format>
        <dc:type rdf:resource="http://purl.org/dc/dcmitype/StillImage" />
        <dc:title></dc:title>
      </cc:Work>
    </rdf:RDF>
  </metadata>
  <g inkscape:label="Layer 1" id="layer1" inkscape:groupmode="layer">
    <g id="ocal_export" style="display:inline" transform="translate(-24,-272)">
      <rect id="rect8336" style="opacity:1;fill:url(#radialGradient8340);fill-opacity:1;fill-rule:evenodd;stroke:none;stroke-opacity:1;stroke-width:0.86788619;stroke-linecap:square;stroke-linejoin:round;stroke-miterlimit:0;stroke-dasharray:none;stroke-dashoffset:0;display:inline;visibility:visible" width="16" height="16" x="24" y="272" />
      <g id="g9063" style="display:inline" transform="matrix(0.6553153,0,0,0.6399772,8.127559,82.56529)">
        <rect id="rect9065" style="opacity:1;fill:#000000;fill-opacity:0.22950822;fill-rule:evenodd;stroke:none;stroke-opacity:1;stroke-width:1.00000012;stroke-linecap:butt;stroke-linejoin:miter;stroke-miterlimit:4;stroke-dasharray:none;stroke-dashoffset:0.5;display:inline;visibility:visible;filter:url(#filter9013)" width="11" height="11" transform="rotate(15,-7.317708,4.827099)" x="114.5802" y="285.146" />
        <rect id="rect9067" style="opacity:1;fill:#edd400;fill-opacity:1;fill-rule:evenodd;stroke:#ffffff;stroke-opacity:1;stroke-width:1.5441612;stroke-linecap:butt;stroke-linejoin:miter;stroke-miterlimit:4;stroke-dasharray:none;stroke-dashoffset:0.5;display:inline;visibility:visible" width="11" height="11" transform="rotate(15)" x="114.5802" y="285.146" />
        <rect id="rect9069" style="opacity:1;fill:#000000;fill-opacity:0.22950822;fill-rule:evenodd;stroke:none;stroke-opacity:1;stroke-width:1.00000012;stroke-linecap:butt;stroke-linejoin:miter;stroke-miterlimit:4;stroke-dasharray:none;stroke-dashoffset:0.5;display:inline;visibility:visible;filter:url(#filter9017)" width="11" height="11" x="31.91592" y="306.55859" />
        <rect id="rect9071" style="opacity:1;fill:#f57900;fill-opacity:1;fill-rule:evenodd;stroke:#ffffff;stroke-opacity:1;stroke-width:1.5441612;stroke-linecap:butt;stroke-linejoin:miter;stroke-miterlimit:4;stroke-dasharray:none;stroke-dashoffset:0.5;display:inline;visibility:visible" width="11" height="11" x="30.91592" y="304.5" />
        <rect id="rect9073" style="opacity:1;fill:#000000;fill-opacity:0.22950822;fill-rule:evenodd;stroke:none;stroke-opacity:1;stroke-width:1.00000012;stroke-linecap:butt;stroke-linejoin:miter;stroke-miterlimit:4;stroke-dasharray:none;stroke-dashoffset:0.5;display:inline;visibility:visible;filter:url(#filter9021)" width="11" height="11" transform="rotate(-18.77452,6.725608,-1.995208)" x="-75.545219" y="300.0697" />
        <rect id="rect9075" style="opacity:1;fill:#a40000;fill-opacity:1;fill-rule:evenodd;stroke:#ffffff;stroke-opacity:1;stroke-width:1.5441612;stroke-linecap:butt;stroke-linejoin:miter;stroke-miterlimit:4;stroke-dasharray:none;stroke-dashoffset:0.5;display:inline;visibility:visible" width="11" height="11" transform="rotate(-18.77452)" x="-75.607918" y="300.04871" />
      </g>
      <g inkscape:label="Layer 1" id="g9041" transform="matrix(0.5887794,0,0,0.5299043,27.11676,272.4016)">
        <g id="g12907">
          <path id="path9043" style="fill:url(#radialGradient9077);fill-opacity:1;fill-rule:evenodd;stroke:#3a7304;stroke-opacity:1;stroke-width:1.79028809;stroke-linecap:round;stroke-linejoin:round;stroke-miterlimit:10;stroke-dasharray:none;stroke-dashoffset:0;marker:none;marker-end:none;marker-mid:none;marker-start:none;display:inline;visibility:visible" d="M 3.897928,0.3942561 V 6.057359 H 0.5000002 L 8.14298,15.49991 15.78596,6.057359 H 12.40122 V 0.3942561 Z" inkscape:connector-curvature="0" sodipodi:nodetypes="cccccccc" />
          <path id="path9045" style="opacity:0.5080214;fill:url(#radialGradient9079);fill-opacity:1;fill-rule:evenodd;stroke:none;stroke-opacity:1;stroke-width:1;stroke-linecap:round;stroke-linejoin:round;stroke-miterlimit:10;stroke-dasharray:none;stroke-dashoffset:0;marker:none;marker-end:none;marker-mid:none;marker-start:none;display:inline;visibility:visible" d="M 2.385752,7.01275 H 4.754505 V 1.339306 H 8.5 C 10.00275,7.574287 8.141234,9.109104 6,11.48958 Z" inkscape:connector-curvature="0" sodipodi:nodetypes="cccccc" />
          <path id="path9047" style="opacity:0.48128339;fill:none;fill-opacity:1;fill-rule:evenodd;stroke:#ffffff;stroke-opacity:1;stroke-width:1.7902869;stroke-linecap:butt;stroke-linejoin:miter;stroke-miterlimit:10;stroke-dasharray:none;stroke-dashoffset:0;marker:none;marker-end:none;marker-mid:none;marker-start:none;display:inline;visibility:visible" d="m 5.607476,2.279653 v 5.67721 H 4.274151 l 3.85854,4.725587 3.792189,-4.725587 h -1.22584 v -5.67721 z" inkscape:connector-curvature="0" sodipodi:nodetypes="cccccccc" />
        </g>
      </g>
    </g>
  </g>
</svg>
