<?xml version="1.0" encoding="UTF-8" standalone="no"?>
<!-- Created with Inkscape (http://www.inkscape.org/) -->

<svg xmlns:dc="http://purl.org/dc/elements/1.1/" xmlns:cc="http://creativecommons.org/ns#" xmlns:rdf="http://www.w3.org/1999/02/22-rdf-syntax-ns#" xmlns:svg="http://www.w3.org/2000/svg" xmlns="http://www.w3.org/2000/svg" xmlns:xlink="http://www.w3.org/1999/xlink" xmlns:sodipodi="http://sodipodi.sourceforge.net/DTD/sodipodi-0.dtd" xmlns:inkscape="http://www.inkscape.org/namespaces/inkscape" id="SVGRoot" version="1.1" inkscape:version="0.92+devel (78cebbf91, 2017-07-21, custom)" width="16px" height="16px" viewBox="0 0 16 16" sodipodi:docname="draw-use-pressure.svg">
  <sodipodi:namedview id="base" pagecolor="#ffffff" bordercolor="#666666" borderopacity="1.0" inkscape:pageopacity="0.0" inkscape:pageshadow="2" inkscape:zoom="16.0" inkscape:cx="8.0" inkscape:cy="8.0" inkscape:document-units="px" inkscape:current-layer="use_pressure" inkscape:document-rotation="0" showgrid="false" inkscape:grid-bbox="true" />
  <defs id="defs10755">
    <linearGradient id="linearGradient15116" inkscape:collect="always" xlink:href="#linearGradient12533" x1="1252.004" y1="826" x2="1252.004" y2="823" gradientUnits="userSpaceOnUse" gradientTransform="matrix(0.9758088,0,0,1,82.19911,25)" />
    <linearGradient id="linearGradient12533" inkscape:collect="always">
      <stop id="stop12535" style="stop-color:#d3d7cf;stop-opacity:1" offset="0" />
      <stop id="stop12537" style="stop-color:#d3d7cf;stop-opacity:0" offset="1" />
    </linearGradient>
    <linearGradient id="linearGradient15118" inkscape:collect="always" xlink:href="#linearGradient12712" x1="1252.004" y1="826" x2="1252.004" y2="823" gradientUnits="userSpaceOnUse" gradientTransform="matrix(0.9758088,0,0,1,82.19911,25)" />
    <linearGradient id="linearGradient12712" inkscape:collect="always">
      <stop id="stop12715" style="stop-color:#2e3436;stop-opacity:1" offset="0" />
      <stop id="stop12717" style="stop-color:#2e3436;stop-opacity:0" offset="1" />
    </linearGradient>
    <linearGradient id="linearGradient15120" inkscape:collect="always" xlink:href="#linearGradient8331" x1="1272.071" y1="863.5" x2="1287.928" y2="863.5" gradientUnits="userSpaceOnUse" gradientTransform="translate(24)" />
    <linearGradient id="linearGradient8331">
      <stop id="stop8333" style="stop-color:#555753;stop-opacity:0" offset="0" />
      <stop id="stop8339" style="stop-color:#555753;stop-opacity:1" offset="0.12418549" />
      <stop id="stop8341" style="stop-color:#555753;stop-opacity:1" offset="0.86629128" />
      <stop id="stop8335" style="stop-color:#555753;stop-opacity:0" offset="1" />
    </linearGradient>
  </defs>
  <metadata id="metadata10758">
    <rdf:RDF>
      <cc:Work rdf:about="">
        <dc:format>image/svg+xml</dc:format>
        <dc:type rdf:resource="http://purl.org/dc/dcmitype/StillImage" />
        <dc:title></dc:title>
      </cc:Work>
    </rdf:RDF>
  </metadata>
  <g inkscape:label="Layer 1" id="layer1" inkscape:groupmode="layer">
    <g id="use_pressure" style="display:inline" transform="translate(-1296,-848)">
      <rect id="rect15099" style="fill:none;fill-opacity:0.16788318;fill-rule:evenodd;stroke:none;stroke-opacity:1;stroke-width:1;stroke-linecap:round;stroke-linejoin:round;stroke-miterlimit:0;stroke-dasharray:none;stroke-dashoffset:0;display:inline;visibility:visible" width="16" height="16" x="1296" y="848" />
      <rect id="rect15101" style="fill:#d3d7cf;fill-opacity:1;fill-rule:evenodd;stroke:#2e3436;stroke-opacity:1;stroke-width:0.99999988;stroke-linecap:square;stroke-linejoin:round;stroke-miterlimit:0;stroke-dasharray:none;stroke-dashoffset:0;display:inline;visibility:visible" width="4" height="5" x="1301.496" y="853.5" />
      <rect id="rect15103" style="fill:#d3d7cf;fill-opacity:1;fill-rule:evenodd;stroke:#2e3436;stroke-opacity:1;stroke-width:0.99999988;stroke-linecap:square;stroke-linejoin:round;stroke-miterlimit:0;stroke-dasharray:none;stroke-dashoffset:0;display:inline;visibility:visible" width="2" height="3" x="1302.496" y="858.5" ry="0.8125" />
      <path id="path15105" style="fill:url(#linearGradient15116);fill-opacity:1;fill-rule:evenodd;stroke:url(#linearGradient15118);stroke-opacity:1;stroke-width:1;stroke-linecap:square;stroke-linejoin:round;stroke-miterlimit:0;stroke-dashoffset:0;marker:none;marker-end:none;marker-mid:none;marker-start:none;display:inline;visibility:visible" d="m 1306.49,848.6594 c 0.122,4.3125 -0.928,5.8406 -1.907,5.8406 h -2.318 c -0.98,0 -1.704,-1.502 -1.765,-5.8145" inkscape:connector-curvature="0" sodipodi:nodetypes="cccc" />
      <path id="path15107" style="fill:none;fill-opacity:0.16788318;fill-rule:evenodd;stroke:#ce5c00;stroke-opacity:1;stroke-width:1;stroke-linecap:round;stroke-linejoin:round;stroke-miterlimit:0;stroke-dasharray:none;stroke-dashoffset:0;marker:none;marker-end:none;marker-mid:none;marker-start:none;display:inline;visibility:visible" d="m 1306,861 2,-3 m -1,4 3,-1 m -9,0 -2,-3 m 1,4 -3,-1" inkscape:connector-curvature="0" />
      <path id="path15109" style="fill:#ddd8d0;fill-opacity:1;fill-rule:evenodd;stroke:url(#linearGradient15120);stroke-opacity:1;stroke-width:1;stroke-linecap:square;stroke-linejoin:round;stroke-miterlimit:0;stroke-dasharray:none;stroke-dashoffset:0;marker:none;marker-end:none;marker-mid:none;marker-start:none;display:inline;visibility:visible" d="m 1296.571,863.5 h 14.858" inkscape:connector-curvature="0" />
      <rect id="rect15112" style="opacity:1;fill:none;fill-opacity:1;fill-rule:evenodd;stroke:#ffffff;stroke-opacity:1;stroke-width:0.50000012;stroke-linecap:round;stroke-linejoin:round;stroke-miterlimit:0;stroke-dasharray:none;stroke-dashoffset:0;display:inline;visibility:visible" width="2.5" height="2.5" x="1302.25" y="855.25" />
      <path id="path15114" style="opacity:1;fill:none;fill-opacity:1;fill-rule:evenodd;stroke:#ffffff;stroke-opacity:1;stroke-width:0.50000012;stroke-linecap:round;stroke-linejoin:round;stroke-miterlimit:0;stroke-dasharray:none;stroke-dashoffset:0;marker:none;marker-end:none;marker-mid:none;marker-start:none;display:inline;visibility:visible" d="m 1305.743,848.8782 c 0.091,3.5741 -0.697,4.8406 -1.432,4.8406 h -1.74 c -0.735,0 -1.279,-1.2449 -1.325,-4.819" inkscape:connector-curvature="0" sodipodi:nodetypes="cccc" />
    </g>
  </g>
</svg>
