<?xml version="1.0" encoding="UTF-8" standalone="no"?>
<!-- Created with Inkscape (http://www.inkscape.org/) -->

<svg xmlns:dc="http://purl.org/dc/elements/1.1/" xmlns:cc="http://creativecommons.org/ns#" xmlns:rdf="http://www.w3.org/1999/02/22-rdf-syntax-ns#" xmlns:svg="http://www.w3.org/2000/svg" xmlns="http://www.w3.org/2000/svg" xmlns:xlink="http://www.w3.org/1999/xlink" xmlns:sodipodi="http://sodipodi.sourceforge.net/DTD/sodipodi-0.dtd" xmlns:inkscape="http://www.inkscape.org/namespaces/inkscape" id="SVGRoot" version="1.1" inkscape:version="0.92+devel (78cebbf91, 2017-07-21, custom)" width="16px" height="16px" viewBox="0 0 16 16" sodipodi:docname="draw-use-tilt.svg">
  <sodipodi:namedview id="base" pagecolor="#ffffff" bordercolor="#666666" borderopacity="1.0" inkscape:pageopacity="0.0" inkscape:pageshadow="2" inkscape:zoom="16.0" inkscape:cx="8.0" inkscape:cy="8.0" inkscape:document-units="px" inkscape:current-layer="use_tilt" inkscape:document-rotation="0" showgrid="false" inkscape:grid-bbox="true" />
  <defs id="defs7180">
    <linearGradient id="linearGradient15091" inkscape:collect="always" xlink:href="#linearGradient12533" x1="1253.3311" y1="826.02948" x2="1251.567" y2="822.30292" gradientUnits="userSpaceOnUse" gradientTransform="rotate(34.28809,1220.646,884.4989)" />
    <linearGradient id="linearGradient12533" inkscape:collect="always">
      <stop id="stop12535" style="stop-color:#d3d7cf;stop-opacity:1" offset="0" />
      <stop id="stop12537" style="stop-color:#d3d7cf;stop-opacity:0" offset="1" />
    </linearGradient>
    <linearGradient id="linearGradient15093" inkscape:collect="always" xlink:href="#linearGradient12712" x1="1280.59" y1="854.60388" x2="1281.2321" y2="850.53119" gradientUnits="userSpaceOnUse" />
    <linearGradient id="linearGradient12712" inkscape:collect="always">
      <stop id="stop12715" style="stop-color:#2e3436;stop-opacity:1" offset="0" />
      <stop id="stop12717" style="stop-color:#2e3436;stop-opacity:0" offset="1" />
    </linearGradient>
    <linearGradient id="linearGradient15095" inkscape:collect="always" xlink:href="#linearGradient8331" x1="1272.071" y1="863.5" x2="1287.928" y2="863.5" gradientUnits="userSpaceOnUse" />
    <linearGradient id="linearGradient8331">
      <stop id="stop8333" style="stop-color:#555753;stop-opacity:0" offset="0" />
      <stop id="stop8339" style="stop-color:#555753;stop-opacity:1" offset="0.12418549" />
      <stop id="stop8341" style="stop-color:#555753;stop-opacity:1" offset="0.86629128" />
      <stop id="stop8335" style="stop-color:#555753;stop-opacity:0" offset="1" />
    </linearGradient>
  </defs>
  <metadata id="metadata7183">
    <rdf:RDF>
      <cc:Work rdf:about="">
        <dc:format>image/svg+xml</dc:format>
        <dc:type rdf:resource="http://purl.org/dc/dcmitype/StillImage" />
        <dc:title></dc:title>
      </cc:Work>
    </rdf:RDF>
  </metadata>
  <g inkscape:label="Layer 1" id="layer1" inkscape:groupmode="layer">
    <g id="use_tilt" style="display:inline" transform="translate(-1272,-848)">
      <rect id="rect15071" style="fill:none;fill-opacity:0.16788318;fill-rule:evenodd;stroke:none;stroke-opacity:1;stroke-width:1;stroke-linecap:round;stroke-linejoin:round;stroke-miterlimit:0;stroke-dasharray:none;stroke-dashoffset:0;display:inline;visibility:visible" width="16" height="16" x="1272" y="848" />
      <rect id="rect15073" style="fill:#d3d7cf;fill-opacity:1;fill-rule:evenodd;stroke:#2e3436;stroke-opacity:1;stroke-width:1;stroke-linecap:square;stroke-linejoin:round;stroke-miterlimit:0;stroke-dasharray:none;stroke-dashoffset:0;display:inline;visibility:visible" width="4" height="5" transform="rotate(34.28809)" x="1535.657" y="-12.86856" />
      <rect id="rect15075" style="fill:#d3d7cf;fill-opacity:1;fill-rule:evenodd;stroke:#2e3436;stroke-opacity:1;stroke-width:0.99999988;stroke-linecap:square;stroke-linejoin:round;stroke-miterlimit:0;stroke-dasharray:none;stroke-dashoffset:0;display:inline;visibility:visible" width="2" height="3" transform="rotate(34.28809)" x="1536.657" y="-7.868556" ry="0.8125" />
      <path id="path15077" style="fill:url(#linearGradient15091);fill-opacity:1;fill-rule:evenodd;stroke:url(#linearGradient15093);stroke-opacity:1;stroke-width:1;stroke-linecap:square;stroke-linejoin:round;stroke-miterlimit:0;stroke-dashoffset:0;marker:none;marker-end:none;marker-mid:none;marker-start:none;display:inline;visibility:visible" d="m 1284.061,851.8416 c -2.326,3.6335 -5.128,5.8328 -5.958,5.2671 l -1.962,-1.3379 c -0.83,-0.5657 -0.323,-2.6264 2.055,-6.2247" inkscape:connector-curvature="0" sodipodi:nodetypes="cccc" />
      <path id="path15079" style="fill:#ddd8d0;fill-opacity:1;fill-rule:evenodd;stroke:url(#linearGradient15095);stroke-opacity:1;stroke-width:1;stroke-linecap:square;stroke-linejoin:round;stroke-miterlimit:0;stroke-dasharray:none;stroke-dashoffset:0;marker:none;marker-end:none;marker-mid:none;marker-start:none;display:inline;visibility:visible" d="m 1272.571,863.5 h 14.858" inkscape:connector-curvature="0" />
      <path id="path15081" style="fill:#ddd8d0;fill-opacity:1;fill-rule:evenodd;stroke:#ce5c00;stroke-opacity:1;stroke-width:1;stroke-linecap:square;stroke-linejoin:round;stroke-miterlimit:0;stroke-dasharray:none;stroke-dashoffset:0;marker:none;marker-end:none;marker-mid:none;marker-start:none;display:inline;visibility:visible" transform="translate(24,24)" sodipodi:type="arc" d="m 1259.1487,831.28619 a 12,10.375 0 0 1 2.7955,5.71421" sodipodi:cx="1250" sodipodi:cy="838" sodipodi:rx="12" sodipodi:ry="10.375" sodipodi:start="5.579392" sodipodi:end="6.186689" sodipodi:open="true" sodipodi:arc-type="arc" />
      <path id="path15083" style="fill:#ce5c00;fill-opacity:1;fill-rule:evenodd;stroke:none;stroke-opacity:1;stroke-width:1;stroke-linecap:square;stroke-linejoin:round;stroke-miterlimit:0;stroke-dasharray:none;stroke-dashoffset:0;marker:none;marker-end:none;marker-mid:none;marker-start:none;display:inline;visibility:visible" d="m 1284,861 2,2 2,-2 z" inkscape:connector-curvature="0" />
      <path id="path15085" style="fill:#ce5c00;fill-opacity:1;fill-rule:evenodd;stroke:none;stroke-opacity:1;stroke-width:1;stroke-linecap:square;stroke-linejoin:round;stroke-miterlimit:0;stroke-dasharray:none;stroke-dashoffset:0;marker:none;marker-end:none;marker-mid:none;marker-start:none;display:inline;visibility:visible" d="m 1284.818,854.1611 -2.828,0.0105 L 1282,857 Z" inkscape:connector-curvature="0" />
      <rect id="rect15087" style="opacity:1;fill:none;fill-opacity:1;fill-rule:evenodd;stroke:#ffffff;stroke-opacity:1;stroke-width:0.50000012;stroke-linecap:round;stroke-linejoin:round;stroke-miterlimit:0;stroke-dasharray:none;stroke-dashoffset:0;display:inline;visibility:visible" width="2.5" height="2.5" transform="rotate(34.67549)" inkscape:transform-center-x="-2.086804" inkscape:transform-center-y="-0.380259" x="1536.257" y="-21.524469" />
      <path id="path15089" style="opacity:1;fill:none;fill-opacity:1;fill-rule:evenodd;stroke:#ffffff;stroke-opacity:1;stroke-width:0.50000012;stroke-linecap:round;stroke-linejoin:round;stroke-miterlimit:0;stroke-dasharray:none;stroke-dashoffset:0;marker:none;marker-end:none;marker-mid:none;marker-start:none;display:inline;visibility:visible" inkscape:transform-center-x="-5.442927" inkscape:transform-center-y="-4.999636" d="m 1282.143,853.0652 c -1.958,2.9914 -3.327,3.5845 -3.932,3.1662 l -1.431,-0.9898 c -0.604,-0.4184 -0.343,-1.7514 1.652,-4.7168" inkscape:connector-curvature="0" sodipodi:nodetypes="cccc" />
    </g>
  </g>
</svg>
