<?xml version="1.0" encoding="UTF-8" standalone="no"?>
<!-- Created with Inkscape (http://www.inkscape.org/) -->

<svg xmlns:dc="http://purl.org/dc/elements/1.1/" xmlns:cc="http://creativecommons.org/ns#" xmlns:rdf="http://www.w3.org/1999/02/22-rdf-syntax-ns#" xmlns:svg="http://www.w3.org/2000/svg" xmlns="http://www.w3.org/2000/svg" xmlns:sodipodi="http://sodipodi.sourceforge.net/DTD/sodipodi-0.dtd" xmlns:inkscape="http://www.inkscape.org/namespaces/inkscape" id="SVGRoot" version="1.1" inkscape:version="0.92+devel (78cebbf91, 2017-07-21, custom)" width="16px" height="16px" viewBox="0 0 16 16" sodipodi:docname="draw-geometry-circle-from-radius.svg">
  <sodipodi:namedview id="base" pagecolor="#ffffff" bordercolor="#666666" borderopacity="1.0" inkscape:pageopacity="0.0" inkscape:pageshadow="2" inkscape:zoom="16.0" inkscape:cx="8.0" inkscape:cy="8.0" inkscape:document-units="px" inkscape:current-layer="layer1" inkscape:document-rotation="0" showgrid="true" inkscape:grid-bbox="true">
    <inkscape:grid type="xygrid" id="grid11815" />
  </sodipodi:namedview>
  <defs id="defs11773" />
  <metadata id="metadata11776">
    <rdf:RDF>
      <cc:Work rdf:about="">
        <dc:format>image/svg+xml</dc:format>
        <dc:type rdf:resource="http://purl.org/dc/dcmitype/StillImage" />
        <dc:title></dc:title>
      </cc:Work>
    </rdf:RDF>
  </metadata>
  <g inkscape:label="Layer 1" id="layer1" inkscape:groupmode="layer">
    <g id="circle_3pts-5" style="display:inline" transform="translate(-1397,-1385)">
      <path inkscape:label="circle_with_radius" id="path13476" style="fill:none;stroke:#5a5a5a;stroke-opacity:1;stroke-width:1;stroke-linecap:square;stroke-linejoin:bevel;stroke-miterlimit:4.26999998;stroke-dasharray:none;stroke-dashoffset:23.20000076;display:inline" d="m 1409.78,1393.436 c 0,0.804 -0.16,1.607 -0.468,2.35 -0.307,0.742 -0.762,1.424 -1.331,1.992 -0.568,0.568 -1.249,1.023 -1.992,1.331 -0.742,0.308 -1.545,0.467 -2.348,0.467 -0.804,0 -1.607,-0.16 -2.348,-0.467 -0.742,-0.308 -1.423,-0.763 -1.99,-1.331 -0.568,-0.569 -1.022,-1.25 -1.329,-1.992 -0.308,-0.743 -0.467,-1.546 -0.467,-2.35 0,-0.804 0.159,-1.607 0.467,-2.35 0.307,-0.742 0.761,-1.424 1.329,-1.992 0.567,-0.568 1.248,-1.023 1.99,-1.331 0.741,-0.308 1.544,-0.468 2.348,-0.468 0.803,0 1.606,0.16 2.348,0.468 0.743,0.307 1.424,0.762 1.992,1.331 0.569,0.568 1.024,1.249 1.331,1.992 0.308,0.743 0.468,1.546 0.468,2.35" inkscape:connector-curvature="0" />
      <path id="path13478" style="fill:none;stroke:#5a5a5a;stroke-opacity:1;stroke-width:1;stroke-linecap:round;stroke-linejoin:round;stroke-miterlimit:0;stroke-dasharray:none;display:inline" d="m 1403.417,1393.612 5.417,-3.388" inkscape:connector-curvature="0" sodipodi:nodetypes="cc" />
      <g id="g13626" transform="translate(46,-17)">
        <g inkscape:label="#g14209" id="g13628" transform="rotate(90,716,847)">
          <path id="path13630" style="opacity:1;fill:#729fcf;fill-opacity:1;fill-rule:evenodd;stroke:#204a87;stroke-opacity:1;stroke-width:1;stroke-linecap:butt;stroke-linejoin:round;stroke-miterlimit:0;stroke-dasharray:none;stroke-dashoffset:0;marker:none;marker-end:none;marker-mid:none;marker-start:none;display:inline;visibility:visible" d="m 1277.5,203.5 h 4 v 4 h -4 z" inkscape:connector-curvature="0" />
          <path id="path13633" style="fill:none;fill-opacity:1;stroke:#ffffff;stroke-opacity:1;stroke-width:0.9999997;stroke-linecap:round;stroke-linejoin:miter;stroke-miterlimit:4" d="m 1278.5,204.5 h 2 v 2 h -2 z" inkscape:connector-curvature="0" />
        </g>
      </g>
      <g id="g13639" transform="translate(51.99997,-20.875)">
        <g inkscape:label="#g14209" id="g13641" transform="rotate(90,716,847)">
          <path id="path13643" style="opacity:1;fill:#729fcf;fill-opacity:1;fill-rule:evenodd;stroke:#204a87;stroke-opacity:1;stroke-width:1;stroke-linecap:butt;stroke-linejoin:round;stroke-miterlimit:0;stroke-dasharray:none;stroke-dashoffset:0;marker:none;marker-end:none;marker-mid:none;marker-start:none;display:inline;visibility:visible" d="m 1277.5,203.5 h 4 v 4 h -4 z" inkscape:connector-curvature="0" />
          <path id="path13645" style="fill:none;fill-opacity:1;stroke:#ffffff;stroke-opacity:1;stroke-width:0.9999997;stroke-linecap:round;stroke-linejoin:miter;stroke-miterlimit:4" d="m 1278.5,204.5 h 2 v 2 h -2 z" inkscape:connector-curvature="0" />
        </g>
      </g>
    </g>
  </g>
</svg>
