<?xml version="1.0" encoding="UTF-8" standalone="no"?>
<!-- Created with Inkscape (http://www.inkscape.org/) -->

<svg xmlns:dc="http://purl.org/dc/elements/1.1/" xmlns:cc="http://creativecommons.org/ns#" xmlns:rdf="http://www.w3.org/1999/02/22-rdf-syntax-ns#" xmlns:svg="http://www.w3.org/2000/svg" xmlns="http://www.w3.org/2000/svg" xmlns:xlink="http://www.w3.org/1999/xlink" xmlns:sodipodi="http://sodipodi.sourceforge.net/DTD/sodipodi-0.dtd" xmlns:inkscape="http://www.inkscape.org/namespaces/inkscape" id="SVGRoot" version="1.1" inkscape:version="0.92+devel (78cebbf91, 2017-07-21, custom)" width="16px" height="16px" viewBox="0 0 16 16" sodipodi:docname="layer-bottom.svg">
  <sodipodi:namedview id="base" pagecolor="#ffffff" bordercolor="#666666" borderopacity="1.0" inkscape:pageopacity="0.0" inkscape:pageshadow="2" inkscape:zoom="16.0" inkscape:cx="8.0" inkscape:cy="8.0" inkscape:document-units="px" inkscape:current-layer="layer_to_bottom" inkscape:document-rotation="0" showgrid="false" inkscape:grid-bbox="true" />
  <defs id="defs13279">
    <radialGradient id="radialGradient11134" inkscape:collect="always" xlink:href="#linearGradient10735" r="8" cx="391" cy="279" gradientUnits="userSpaceOnUse" gradientTransform="translate(18.00001,72.99999)" fx="391" fy="279" />
    <linearGradient id="linearGradient10735">
      <stop id="stop10737" style="stop-color:#c0c0c0;stop-opacity:0" offset="0" />
      <stop id="stop10739" style="stop-color:#c0c0c0;stop-opacity:0" offset="1" />
    </linearGradient>
    <radialGradient id="radialGradient11003" inkscape:collect="always" xlink:href="#linearGradient2591" r="16.9562" cx="50.307419" cy="29.042219" gradientUnits="userSpaceOnUse" gradientTransform="matrix(3.075056e-8,-0.6487303,-0.7666811,-6.535853e-8,427.2661,389.636)" fx="50.307419" fy="29.042219" />
    <linearGradient id="linearGradient2591">
      <stop id="stop2593" style="stop-color:#73d216" offset="0" />
      <stop id="stop2595" style="stop-color:#4e9a06" offset="1.0000000" />
    </linearGradient>
    <radialGradient id="radialGradient11000" inkscape:collect="always" xlink:href="#linearGradient2591" r="16.9562" cx="40.076149" cy="21.84963" gradientUnits="userSpaceOnUse" gradientTransform="matrix(0.017043,0.5772776,-0.4413401,0.0130298,416.9601,329.5749)" fx="40.076149" fy="21.84963" />
    <radialGradient id="radialGradient10997" inkscape:collect="always" xlink:href="#linearGradient8650" r="17.171419" cx="32.346489" cy="3.6765721" gradientUnits="userSpaceOnUse" gradientTransform="matrix(0,0.4674281,0.4079289,0,402.5002,337.875)" fx="32.346489" fy="3.6765721" />
    <linearGradient id="linearGradient8650">
      <stop id="stop8652" style="stop-color:#ffffff;stop-opacity:1" offset="0" />
      <stop id="stop8654" style="stop-color:#ffffff;stop-opacity:0" offset="1" />
    </linearGradient>
    <radialGradient id="radialGradient10993" inkscape:collect="always" xlink:href="#linearGradient8650" r="17.171419" cx="23.78903" cy="1.225165" gradientUnits="userSpaceOnUse" gradientTransform="matrix(0,-0.4674281,0.4079289,0,402.5002,368.1197)" fx="23.78903" fy="1.225165" />
  </defs>
  <metadata id="metadata13282">
    <rdf:RDF>
      <cc:Work rdf:about="">
        <dc:format>image/svg+xml</dc:format>
        <dc:type rdf:resource="http://purl.org/dc/dcmitype/StillImage" />
        <dc:title></dc:title>
      </cc:Work>
    </rdf:RDF>
  </metadata>
  <g inkscape:label="Layer 1" id="layer1" inkscape:groupmode="layer">
    <g id="layer_to_bottom" style="display:inline" transform="translate(-401,-344)">
      <rect id="rect11005" style="opacity:1;fill:url(#radialGradient11134);fill-opacity:1;fill-rule:evenodd;stroke:none;stroke-opacity:1;stroke-width:0.86788619;stroke-linecap:square;stroke-linejoin:round;stroke-miterlimit:0;stroke-dasharray:none;stroke-dashoffset:0;display:inline;visibility:visible" width="16" height="16" x="401" y="344" />
      <rect id="rect10974" style="fill:url(#radialGradient11003);fill-opacity:1;fill-rule:evenodd;stroke:#4e9a06;stroke-opacity:1;stroke-width:1.00008655;stroke-linecap:round;stroke-linejoin:round;stroke-miterlimit:10;stroke-dasharray:none;stroke-dashoffset:0;display:inline;visibility:visible" width="14" height="3" x="401.5" y="356.5" />
      <path id="path10976" style="fill:url(#radialGradient11000);fill-opacity:1;fill-rule:evenodd;stroke:#4e9a06;stroke-opacity:1;stroke-width:1.00008655;stroke-linecap:round;stroke-linejoin:round;stroke-miterlimit:10;stroke-dasharray:none;stroke-dashoffset:0;marker:none;marker-end:none;marker-mid:none;marker-start:none;display:inline;visibility:visible" d="m 405.5008,344.4947 v 6.0012 H 402.5 l 6.0143,6.0041 5.9866,-6.0041 h -2.9931 v -6.0012 z" inkscape:connector-curvature="0" sodipodi:nodetypes="cccccccc" />
      <path id="path10978" style="opacity:0.5080214;fill:url(#radialGradient10997);fill-opacity:1;fill-rule:evenodd;stroke:none;stroke-opacity:1;stroke-width:1;stroke-linecap:round;stroke-linejoin:round;stroke-miterlimit:10;stroke-dasharray:none;stroke-dashoffset:0;marker:none;marker-end:none;marker-mid:none;marker-start:none;display:inline;visibility:visible" d="M 403.4861,350.9946 H 406 l 0.002,-6.0006 1.9981,6e-4 c 1,3 1,8 0.4861,10.7349 z" inkscape:connector-curvature="0" sodipodi:nodetypes="cccccc" />
      <path id="path10980" style="opacity:0.48128339;fill:none;fill-opacity:1;fill-rule:evenodd;stroke:#ffffff;stroke-opacity:1;stroke-width:1.00008595;stroke-linecap:butt;stroke-linejoin:miter;stroke-miterlimit:10;stroke-dasharray:none;stroke-dashoffset:0;marker:none;marker-end:none;marker-mid:none;marker-start:none;display:inline;visibility:visible" d="m 406.514,345.4816 v 6.0087 h -1.7851 l 3.8023,3.5927 3.7027,-3.5927 h -1.7219 v -6.0087 z" inkscape:connector-curvature="0" sodipodi:nodetypes="cccccccc" />
      <path id="path10982" style="opacity:0.5080214;fill:url(#radialGradient10993);fill-opacity:1;fill-rule:evenodd;stroke:none;stroke-opacity:1;stroke-width:1;stroke-linecap:round;stroke-linejoin:round;stroke-miterlimit:10;stroke-dasharray:none;stroke-dashoffset:0;marker:none;marker-end:none;marker-mid:none;marker-start:none;display:inline;visibility:visible" d="m 402,358 v -1 h 13 l -4,1 c -6.2118,0.974 -7,0 -9,0 z" inkscape:connector-curvature="0" sodipodi:nodetypes="ccccc" />
    </g>
  </g>
</svg>
