<?xml version="1.0" encoding="UTF-8" standalone="no"?>
<!-- Created with Inkscape (http://www.inkscape.org/) -->

<svg xmlns:dc="http://purl.org/dc/elements/1.1/" xmlns:cc="http://creativecommons.org/ns#" xmlns:rdf="http://www.w3.org/1999/02/22-rdf-syntax-ns#" xmlns:svg="http://www.w3.org/2000/svg" xmlns="http://www.w3.org/2000/svg" xmlns:xlink="http://www.w3.org/1999/xlink" xmlns:sodipodi="http://sodipodi.sourceforge.net/DTD/sodipodi-0.dtd" xmlns:inkscape="http://www.inkscape.org/namespaces/inkscape" id="SVGRoot" version="1.1" inkscape:version="0.92+devel (78cebbf91, 2017-07-21, custom)" width="16px" height="16px" viewBox="0 0 16 16" sodipodi:docname="node-break.svg">
  <sodipodi:namedview id="base" pagecolor="#ffffff" bordercolor="#666666" borderopacity="1.0" inkscape:pageopacity="0.0" inkscape:pageshadow="2" inkscape:zoom="16.0" inkscape:cx="8.0" inkscape:cy="8.0" inkscape:document-units="px" inkscape:current-layer="node_break" inkscape:document-rotation="0" showgrid="false" inkscape:grid-bbox="true" />
  <defs id="defs12460">
    <radialGradient id="radialGradient14102" inkscape:collect="always" xlink:href="#linearGradient10735" r="8" cx="391" cy="279" gradientUnits="userSpaceOnUse" gradientTransform="matrix(0.7272725,0,0,0.7272725,1789.818,76.36368)" fx="391" fy="279" />
    <linearGradient id="linearGradient10735">
      <stop id="stop10737" style="stop-color:#c0c0c0;stop-opacity:0" offset="0" />
      <stop id="stop10739" style="stop-color:#c0c0c0;stop-opacity:0" offset="1" />
    </linearGradient>
    <linearGradient id="linearGradient7640" inkscape:collect="always" xlink:href="#linearGradient8331" x1="-16.000059" y1="423.45541" x2="-11.80596" y2="423.45541" gradientUnits="userSpaceOnUse" gradientTransform="matrix(1.294118,0,0,1.374999,1.705879,-156.8754)" />
    <linearGradient id="linearGradient8331">
      <stop id="stop8333" style="stop-color:#555753;stop-opacity:0" offset="0" />
      <stop id="stop8339" style="stop-color:#555753;stop-opacity:1" offset="0.12418549" />
      <stop id="stop8341" style="stop-color:#555753;stop-opacity:1" offset="0.86629128" />
      <stop id="stop8335" style="stop-color:#555753;stop-opacity:0" offset="1" />
    </linearGradient>
    <linearGradient id="linearGradient7642" inkscape:collect="always" xlink:href="#linearGradient8343" x1="-16.000219" y1="423.58578" x2="-11.46716" y2="423.58578" gradientUnits="userSpaceOnUse" gradientTransform="matrix(1.294118,0,0,1.375001,1.705879,-156.8756)" />
    <linearGradient id="linearGradient8343">
      <stop id="stop8345" style="stop-color:#babdb6;stop-opacity:0" offset="0" />
      <stop id="stop8351" style="stop-color:#babdb6;stop-opacity:1" offset="0.2" />
      <stop id="stop8353" style="stop-color:#babdb6;stop-opacity:1" offset="0.84444445" />
      <stop id="stop8347" style="stop-color:#babdb6;stop-opacity:0" offset="1" />
    </linearGradient>
    <linearGradient id="linearGradient9452" inkscape:collect="always" xlink:href="#linearGradient8331" x1="-16.000059" y1="423.45541" x2="-11.80596" y2="423.45541" gradientUnits="userSpaceOnUse" gradientTransform="matrix(1.294118,0,0,1.375,1.705879,-156.7501)" />
    <linearGradient id="linearGradient9454" inkscape:collect="always" xlink:href="#linearGradient8343" x1="-16.000219" y1="423.58578" x2="-11.46716" y2="423.58578" gradientUnits="userSpaceOnUse" gradientTransform="matrix(1.294118,0,0,1.375001,1.705879,-156.7502)" />
    <linearGradient id="linearGradient7700" inkscape:collect="always" xlink:href="#linearGradient8331" x1="-16.000059" y1="423.45541" x2="1.000059" y2="423.45541" gradientUnits="userSpaceOnUse" gradientTransform="matrix(1.294118,0,0,1.375001,1.705882,-170.876)" />
    <linearGradient id="linearGradient7702" inkscape:collect="always" xlink:href="#linearGradient8343" x1="-16.000219" y1="423.58578" x2="0.58696818" y2="423.58578" gradientUnits="userSpaceOnUse" gradientTransform="matrix(1.294118,0,0,1.374996,1.705882,-170.8733)" />
    <radialGradient id="radialGradient13974" inkscape:collect="always" xlink:href="#linearGradient2591" r="16.9562" cx="35.292671" cy="20.49449" gradientUnits="userSpaceOnUse" gradientTransform="matrix(0,0.121098,-0.1996121,0,1340.514,209.7993)" fx="35.292671" fy="20.49449" />
    <linearGradient id="linearGradient2591">
      <stop id="stop2593" style="stop-color:#73d216" offset="0" />
      <stop id="stop2595" style="stop-color:#4e9a06" offset="1.0000000" />
    </linearGradient>
    <linearGradient id="linearGradient7276" inkscape:collect="always" xlink:href="#linearGradient11207" x1="1469" y1="34.499969" x2="1482" y2="34.499969" gradientUnits="userSpaceOnUse" gradientTransform="matrix(1.498293,0,0,1.397782,548.7676,204.9645)" />
    <linearGradient id="linearGradient11207">
      <stop id="stop11209" style="stop-color:#d3d7cf;stop-opacity:1" offset="0" />
      <stop id="stop11211" style="stop-color:#d3d7cf;stop-opacity:1" offset="1" />
    </linearGradient>
    <linearGradient id="linearGradient12610" inkscape:collect="always" xlink:href="#linearGradient11207" x1="1469" y1="34.499969" x2="1482" y2="34.499969" gradientUnits="userSpaceOnUse" gradientTransform="matrix(1.498293,0,0,1.397782,548.7676,204.9645)" />
    <linearGradient id="linearGradient12612" inkscape:collect="always" xlink:href="#linearGradient11207" x1="1469" y1="34.499969" x2="1482" y2="34.499969" gradientUnits="userSpaceOnUse" gradientTransform="matrix(1.498293,0,0,1.397782,548.7676,204.9645)" />
  </defs>
  <metadata id="metadata12463">
    <rdf:RDF>
      <cc:Work rdf:about="">
        <dc:format>image/svg+xml</dc:format>
        <dc:type rdf:resource="http://purl.org/dc/dcmitype/StillImage" />
        <dc:title></dc:title>
      </cc:Work>
    </rdf:RDF>
  </metadata>
  <g inkscape:label="Layer 1" id="layer1" inkscape:groupmode="layer">
    <g id="node_break" style="display:inline" transform="translate(-1392,-192)">
      <rect id="rect6701" style="fill:url(#radialGradient14102);fill-opacity:1;fill-rule:evenodd;stroke:none;stroke-opacity:1;stroke-width:1.193344;stroke-linecap:square;stroke-linejoin:round;stroke-miterlimit:0;stroke-dasharray:none;stroke-dashoffset:0;display:inline;visibility:visible" width="16" height="16" x="1392" y="192" />
      <g id="g7634" transform="matrix(-0.7272725,0,0,-0.7272725,1394.182,514.9088)">
        <path id="path7636" style="fill:url(#linearGradient7640);fill-opacity:1;stroke:none;stroke-opacity:1;stroke-width:1;stroke-linecap:round;stroke-linejoin:miter;stroke-miterlimit:4" d="M -19,423.3747 H 2.999997 v 4.125 H -19 Z" inkscape:connector-curvature="0" />
        <path id="path7638" style="fill:url(#linearGradient7642);fill-opacity:1;stroke:none;stroke-opacity:1;stroke-width:1;stroke-linecap:round;stroke-linejoin:miter;stroke-miterlimit:4" d="M -19,424.7497 H 2.999997 v 1.375 H -19 Z" inkscape:connector-curvature="0" />
      </g>
      <g id="g7630" transform="matrix(0.7272725,0,0,0.7272725,1405.818,-104)">
        <path id="path6703" style="fill:url(#linearGradient9452);fill-opacity:1;stroke:none;stroke-opacity:1;stroke-width:1;stroke-linecap:round;stroke-linejoin:miter;stroke-miterlimit:4" d="M -19,423.5001 H 2.999997 v 4.125 H -19 Z" inkscape:connector-curvature="0" />
        <path id="path6705" style="fill:url(#linearGradient9454);fill-opacity:1;stroke:none;stroke-opacity:1;stroke-width:1;stroke-linecap:round;stroke-linejoin:miter;stroke-miterlimit:4" d="M -19,424.8751 H 2.999997 v 1.375 H -19 Z" inkscape:connector-curvature="0" />
      </g>
      <g id="g7686" transform="matrix(0.7272725,0,0,0.7272725,1405.818,-104.7272)">
        <path id="path7668" style="opacity:1;fill:url(#linearGradient7700);fill-opacity:1;stroke:none;stroke-opacity:1;stroke-width:1;stroke-linecap:round;stroke-linejoin:miter;stroke-miterlimit:4" d="M -19,409.375 H 3 v 4.125 h -22 z" inkscape:connector-curvature="0" />
        <path id="path7670" style="opacity:1;fill:url(#linearGradient7702);fill-opacity:1;stroke:none;stroke-opacity:1;stroke-width:1;stroke-linecap:round;stroke-linejoin:miter;stroke-miterlimit:4" d="M -19,410.75 H 3 v 1.375 h -22 z" inkscape:connector-curvature="0" />
      </g>
      <g id="use13946" transform="translate(63.9778,-12.99999)">
        <path id="path13970" style="fill:url(#radialGradient13974);fill-opacity:1;fill-rule:evenodd;stroke:#3a7304;stroke-opacity:1;stroke-width:0.99999863;stroke-linecap:round;stroke-linejoin:round;stroke-miterlimit:10;stroke-dasharray:none;stroke-dashoffset:0;marker:none;marker-end:none;marker-mid:none;marker-start:none;display:inline;visibility:visible" d="m 1334.496,210.5 v 2.0139 h -1.974 l 3.476,2.9861 3.524,-2.9861 h -2.017 V 210.5 Z" inkscape:connector-curvature="0" sodipodi:nodetypes="cccccccc" />
        <path id="path13972" style="opacity:0.48128339;fill:none;fill-opacity:1;fill-rule:evenodd;stroke:#ffffff;stroke-opacity:1;stroke-width:0.5;stroke-linecap:butt;stroke-linejoin:miter;stroke-miterlimit:10;stroke-dasharray:none;stroke-dashoffset:0;marker:none;marker-end:none;marker-mid:none;marker-start:none;display:inline;visibility:visible" d="m 1335.265,211.25 v 2.0161 h -0.68 l 1.418,1.2274 1.436,-1.2274 h -0.681 V 211.25 Z" inkscape:connector-curvature="0" sodipodi:nodetypes="cccccccc" />
      </g>
      <g inkscape:label="#g14209" id="use14458" transform="translate(121,-11)">
        <path id="path7270" style="opacity:1;fill:url(#linearGradient12610);fill-opacity:1;fill-rule:evenodd;stroke:#888a85;stroke-opacity:1;stroke-width:1;stroke-linecap:butt;stroke-linejoin:round;stroke-miterlimit:0;stroke-dasharray:none;stroke-dashoffset:0;marker:none;marker-end:none;marker-mid:none;marker-start:none;display:inline;visibility:visible" d="m 1277.5,203.5 h 4 v 4 h -4 z" inkscape:connector-curvature="0" />
        <path id="path7272" style="fill:none;fill-opacity:1;stroke:#ffffff;stroke-opacity:1;stroke-width:0.9999997;stroke-linecap:round;stroke-linejoin:miter;stroke-miterlimit:4" d="m 1278.5,204.5 h 2 v 2 h -2 z" inkscape:connector-curvature="0" />
      </g>
      <g inkscape:label="#g14209" id="use14460" transform="translate(117)">
        <path id="path7278" style="opacity:1;fill:url(#linearGradient12612);fill-opacity:1;fill-rule:evenodd;stroke:#888a85;stroke-opacity:1;stroke-width:1;stroke-linecap:butt;stroke-linejoin:round;stroke-miterlimit:0;stroke-dasharray:none;stroke-dashoffset:0;marker:none;marker-end:none;marker-mid:none;marker-start:none;display:inline;visibility:visible" d="m 1277.5,203.5 h 4 v 4 h -4 z" inkscape:connector-curvature="0" />
        <path id="path7280" style="fill:none;fill-opacity:1;stroke:#ffffff;stroke-opacity:1;stroke-width:0.9999997;stroke-linecap:round;stroke-linejoin:miter;stroke-miterlimit:4" d="m 1278.5,204.5 h 2 v 2 h -2 z" inkscape:connector-curvature="0" />
      </g>
      <g inkscape:label="#g14209" id="use14462" transform="translate(124,3e-5)">
        <path id="path7287" style="opacity:1;fill:url(#linearGradient7276);fill-opacity:1;fill-rule:evenodd;stroke:#888a85;stroke-opacity:1;stroke-width:1;stroke-linecap:butt;stroke-linejoin:round;stroke-miterlimit:0;stroke-dasharray:none;stroke-dashoffset:0;marker:none;marker-end:none;marker-mid:none;marker-start:none;display:inline;visibility:visible" d="m 1277.5,203.5 h 4 v 4 h -4 z" inkscape:connector-curvature="0" />
        <path id="path7289" style="fill:none;fill-opacity:1;stroke:#ffffff;stroke-opacity:1;stroke-width:0.9999997;stroke-linecap:round;stroke-linejoin:miter;stroke-miterlimit:4" d="m 1278.5,204.5 h 2 v 2 h -2 z" inkscape:connector-curvature="0" />
      </g>
    </g>
  </g>
</svg>
