<?xml version="1.0" encoding="UTF-8" standalone="no"?>
<!-- Created with Inkscape (http://www.inkscape.org/) -->

<svg xmlns:dc="http://purl.org/dc/elements/1.1/" xmlns:cc="http://creativecommons.org/ns#" xmlns:rdf="http://www.w3.org/1999/02/22-rdf-syntax-ns#" xmlns:svg="http://www.w3.org/2000/svg" xmlns="http://www.w3.org/2000/svg" xmlns:xlink="http://www.w3.org/1999/xlink" xmlns:sodipodi="http://sodipodi.sourceforge.net/DTD/sodipodi-0.dtd" xmlns:inkscape="http://www.inkscape.org/namespaces/inkscape" id="SVGRoot" version="1.1" inkscape:version="0.92+devel (78cebbf91, 2017-07-21, custom)" width="22px" height="22px" viewBox="0 0 22 22" sodipodi:docname="object-fill.svg">
  <sodipodi:namedview id="base" pagecolor="#ffffff" bordercolor="#666666" borderopacity="1.0" inkscape:pageopacity="0.0" inkscape:pageshadow="2" inkscape:zoom="11.6363636364" inkscape:cx="11.0" inkscape:cy="11.0" inkscape:document-units="px" inkscape:current-layer="properties_fill" inkscape:document-rotation="0" showgrid="false" inkscape:grid-bbox="true" />
  <defs id="defs10625">
    <radialGradient id="radialGradient22663" inkscape:collect="always" xlink:href="#linearGradient16370" r="22.5" cx="27.125" cy="45.625" gradientUnits="userSpaceOnUse" gradientTransform="matrix(1,0,0,0.2,0,36.5)" fx="27.125" fy="45.625" />
    <linearGradient id="linearGradient16370">
      <stop id="stop16372" style="stop-color:#50534b;stop-opacity:0.46391752" offset="0.0000000" />
      <stop id="stop16374" style="stop-color:#50534b;stop-opacity:0" offset="1" />
    </linearGradient>
    <linearGradient id="linearGradient22665" inkscape:collect="always" xlink:href="#linearGradient5737" x1="2" y1="27.18235" x2="8.9176159" y2="27.18235" gradientUnits="userSpaceOnUse" gradientTransform="matrix(0.438799,0,0,0.438799,0.565693,-0.279792)" />
    <linearGradient id="linearGradient5737">
      <stop id="stop5739" style="stop-color:#c0d5f0;stop-opacity:1" offset="0.0000000" />
      <stop id="stop5741" style="stop-color:#77a4df;stop-opacity:1" offset="1.0000000" />
    </linearGradient>
    <linearGradient id="linearGradient22667" inkscape:collect="always" xlink:href="#linearGradient15060" x1="88.659218" y1="23.661831" x2="104.9418" y2="23.8396" gradientUnits="userSpaceOnUse" gradientTransform="matrix(0.373813,-0.222635,0.215821,0.385616,-33.16474,24.90046)" spreadMethod="reflect" />
    <linearGradient id="linearGradient15060">
      <stop id="stop15062" style="stop-color:#5e605c;stop-opacity:1" offset="0" />
      <stop id="stop15066" style="stop-color:#dddddd;stop-opacity:1" offset="0.66074723" />
      <stop id="stop15064" style="stop-color:#f7f7f7;stop-opacity:1" offset="1" />
    </linearGradient>
    <radialGradient id="radialGradient22669" inkscape:collect="always" xlink:href="#linearGradient8059" r="4.3006992" cx="24.660351" cy="21.21833" gradientUnits="userSpaceOnUse" fx="24.660351" fy="21.21833" />
    <linearGradient id="linearGradient8059">
      <stop id="stop8061" style="stop-color:#ffffff;stop-opacity:1" offset="0.0000000" />
      <stop id="stop8063" style="stop-color:#9d9d9d;stop-opacity:1" offset="1.0000000" />
    </linearGradient>
  </defs>
  <metadata id="metadata10628">
    <rdf:RDF>
      <cc:Work rdf:about="">
        <dc:format>image/svg+xml</dc:format>
        <dc:type rdf:resource="http://purl.org/dc/dcmitype/StillImage" />
        <dc:title></dc:title>
      </cc:Work>
    </rdf:RDF>
  </metadata>
  <g inkscape:label="Layer 1" id="layer1" inkscape:groupmode="layer">
    <g id="properties_fill" style="display:inline" transform="translate(-191,-229)">
      <rect id="rect6315" style="opacity:0.24267782;fill:#ffffff;fill-opacity:0;stroke:none;stroke-opacity:1;stroke-width:1;stroke-linecap:round;stroke-linejoin:round;stroke-miterlimit:4;stroke-dasharray:none;stroke-dashoffset:0" width="22" height="22" x="191" y="229" />
      <g inkscape:label="Layer 1" id="g6317" transform="translate(191,228.991)">
        <ellipse id="path6319" style="opacity:1;fill:url(#radialGradient22663);fill-opacity:1;fill-rule:evenodd;stroke:none;stroke-opacity:1;stroke-width:1;stroke-linecap:round;stroke-linejoin:round;stroke-miterlimit:4;stroke-dasharray:none;stroke-dashoffset:0" transform="matrix(0.488889,0,0,0.555555,-2.261111,-5.847192)" rx="22.5" ry="4.5" cx="27.125" cy="45.625" />
        <path id="path17768" style="fill:url(#linearGradient22665);fill-opacity:1;fill-rule:evenodd;stroke:#586a9a;stroke-opacity:1;stroke-width:1.00000036;stroke-linecap:butt;stroke-linejoin:miter;stroke-miterlimit:4;stroke-dasharray:none" d="m 7.696683,6.484471 c 0,0 -5.244617,0.055146 -5.244617,0.055146 C 0.3685084,6.623849 0.5046658,8.459678 0.5138073,8.875623 V 15.16627 C 0.3591277,16.92401 3.601438,17.00593 3.47779,15.19107 L 3.497182,9.174694 Z" inkscape:connector-curvature="0" sodipodi:nodetypes="csccccc" />
        <path id="path6323" style="fill:url(#linearGradient22667);fill-opacity:1;fill-rule:evenodd;stroke:#555753;stroke-opacity:1;stroke-width:1;stroke-linecap:butt;stroke-linejoin:miter;stroke-miterlimit:4;stroke-dasharray:none" d="M 3.409735,9.126651 9.317844,19.68288 c 0.4538,0.73661 1.183376,1.01976 1.886686,0.64373 l 8.57435,-5.1067 c 0.6522,-0.45806 0.95466,-1.31839 0.53816,-2.07185 L 14.40218,2.579777 Z" inkscape:connector-curvature="0" sodipodi:nodetypes="ccccccc" />
        <circle id="path6325" style="opacity:1;fill:url(#radialGradient22669);fill-opacity:1;fill-rule:evenodd;stroke:#555753;stroke-opacity:1;stroke-width:2.0692811;stroke-linecap:round;stroke-linejoin:miter;stroke-miterlimit:4;stroke-dasharray:none;stroke-dashoffset:0" transform="matrix(0.440329,-0.251438,0.253871,0.434898,-4.734555,7.454736)" r="3.800699" cx="24.660351" cy="21.21833" />
        <path id="path6327" style="fill:none;fill-opacity:1;fill-rule:evenodd;stroke:#ffffff;stroke-opacity:1;stroke-width:0.93590617;stroke-linecap:butt;stroke-linejoin:miter;stroke-miterlimit:4;stroke-dasharray:none" d="M 4.698602,9.406508 9.68299,18.64064 c 0.52036,0.9288 0.91143,1.11652 1.76869,0.60647 l 7.28615,-4.37163 c 0.85323,-0.50765 1.03204,-0.99464 0.5013,-1.94198 L 14.11772,3.867627 Z" inkscape:connector-curvature="0" sodipodi:nodetypes="ccccccc" />
        <path id="path6329" style="fill:none;fill-opacity:0.75;fill-rule:evenodd;stroke:#555753;stroke-opacity:1;stroke-width:1.00000036;stroke-linecap:round;stroke-linejoin:miter;stroke-miterlimit:4;stroke-dasharray:none" d="m 11.53707,8.598024 v -5.74426 c 0,-3.1843639 6.04245,-3.0862486 6.04245,0.132583 v 4.858306" inkscape:connector-curvature="0" sodipodi:nodetypes="cccc" />
        <circle id="path17774" style="opacity:1;fill:#ffffff;fill-opacity:1;fill-rule:nonzero;stroke:none;stroke-opacity:1;stroke-width:0.2;stroke-linecap:round;stroke-linejoin:miter;stroke-miterlimit:4;stroke-dasharray:none;stroke-dashoffset:0;display:inline;visibility:visible" r="0.75" cx="1.59375" cy="7.65625" />
      </g>
    </g>
  </g>
</svg>
