<?xml version="1.0" encoding="UTF-8" standalone="no"?>
<!-- Created with Inkscape (http://www.inkscape.org/) -->

<svg xmlns:dc="http://purl.org/dc/elements/1.1/" xmlns:cc="http://creativecommons.org/ns#" xmlns:rdf="http://www.w3.org/1999/02/22-rdf-syntax-ns#" xmlns:svg="http://www.w3.org/2000/svg" xmlns="http://www.w3.org/2000/svg" xmlns:sodipodi="http://sodipodi.sourceforge.net/DTD/sodipodi-0.dtd" xmlns:inkscape="http://www.inkscape.org/namespaces/inkscape" id="SVGRoot" version="1.1" inkscape:version="0.92+devel (78cebbf91, 2017-07-21, custom)" width="16px" height="16px" viewBox="0 0 16 16" sodipodi:docname="object-tweak-attract.svg">
  <sodipodi:namedview id="base" pagecolor="#ffffff" bordercolor="#666666" borderopacity="1.0" inkscape:pageopacity="0.0" inkscape:pageshadow="2" inkscape:zoom="16.0" inkscape:cx="8.0" inkscape:cy="8.0" inkscape:document-units="px" inkscape:current-layer="layer1" inkscape:document-rotation="0" showgrid="false" inkscape:grid-bbox="true" />
  <defs id="defs11495" />
  <metadata id="metadata11498">
    <rdf:RDF>
      <cc:Work rdf:about="">
        <dc:format>image/svg+xml</dc:format>
        <dc:type rdf:resource="http://purl.org/dc/dcmitype/StillImage" />
        <dc:title></dc:title>
      </cc:Work>
    </rdf:RDF>
  </metadata>
  <g inkscape:label="Layer 1" id="layer1" inkscape:groupmode="layer">
    <g id="g11617">
      <circle id="use14144" style="fill:#3465a4;fill-opacity:1;fill-rule:nonzero;stroke:#ffffff;stroke-width:0.3344132;display:inline;visibility:visible" r="1.3405904" cx="10.95449" cy="12.966949" inkscape:tile-y0="136.8702" inkscape:tile-x0="373.9822" />
      <circle id="use14146" style="fill:#3465a4;fill-opacity:1;fill-rule:nonzero;stroke:#ffffff;stroke-width:0.3344132;display:inline;visibility:visible" r="1.3405904" cx="5.0464902" cy="13.04445" inkscape:tile-y0="136.8702" inkscape:tile-x0="373.9822" />
      <circle id="use14148" style="fill:#3465a4;fill-opacity:1;fill-rule:nonzero;stroke:#ffffff;stroke-width:0.3344132;display:inline;visibility:visible" r="1.3405904" cx="13.20849" cy="4.9726496" inkscape:tile-y0="136.8702" inkscape:tile-x0="373.9822" />
      <circle id="use14150" style="fill:#3465a4;fill-opacity:1;fill-rule:nonzero;stroke:#ffffff;stroke-width:0.3344132;display:inline;visibility:visible" r="1.3405904" cx="13.13049" cy="11.027349" inkscape:tile-y0="136.8702" inkscape:tile-x0="373.9822" />
      <circle id="use14152" style="fill:#3465a4;fill-opacity:1;fill-rule:nonzero;stroke:#ffffff;stroke-width:0.3344132;display:inline;visibility:visible" r="1.3405904" cx="12.47349" cy="8.0000496" inkscape:tile-y0="136.8702" inkscape:tile-x0="373.9822" />
      <circle id="use14154" style="fill:#3465a4;fill-opacity:1;fill-rule:nonzero;stroke:#ffffff;stroke-width:0.3344132;display:inline;visibility:visible" r="1.3405904" cx="8.0004902" cy="12.34975" inkscape:tile-y0="136.8702" inkscape:tile-x0="373.9822" />
      <circle id="path14156" style="fill:#729fcf;fill-opacity:1;fill-rule:nonzero;stroke:#ffffff;stroke-width:0.3344132;display:inline;visibility:visible" r="1.3405904" cx="2.09249" cy="1.9452496" inkscape:tile-cx="375.0941" inkscape:tile-cy="137.9821" inkscape:tile-w="2.223736" inkscape:tile-h="2.223736" inkscape:tile-x0="373.9822" inkscape:tile-y0="136.8702" />
      <circle id="use14158" style="fill:#3465a4;fill-opacity:1;fill-rule:nonzero;stroke:#ffffff;stroke-width:0.3344132;display:inline;visibility:visible" r="1.3405904" cx="10.79949" cy="2.8771496" inkscape:tile-y0="136.8702" inkscape:tile-x0="373.9822" />
      <circle id="use14160" style="fill:#3465a4;fill-opacity:1;fill-rule:nonzero;stroke:#ffffff;stroke-width:0.3344132;display:inline;visibility:visible" r="1.3405904" cx="5.0464902" cy="2.7996495" inkscape:tile-y0="136.8702" inkscape:tile-x0="373.9822" />
      <circle id="use14162" style="fill:#729fcf;fill-opacity:1;fill-rule:nonzero;stroke:#ffffff;stroke-width:0.3344132;display:inline;visibility:visible" r="1.3405904" cx="13.90749" cy="1.9452496" inkscape:tile-y0="136.8702" inkscape:tile-x0="373.9822" />
      <circle id="use14164" style="fill:#3465a4;fill-opacity:1;fill-rule:nonzero;stroke:#ffffff;stroke-width:0.3344132;display:inline;visibility:visible" r="1.3405904" cx="3.41049" cy="8.0000496" inkscape:tile-y0="136.8702" inkscape:tile-x0="373.9822" />
      <circle id="use14166" style="fill:#3465a4;fill-opacity:1;fill-rule:nonzero;stroke:#ffffff;stroke-width:0.3344132;display:inline;visibility:visible" r="1.3405904" cx="2.8694901" cy="11.027349" inkscape:tile-y0="136.8702" inkscape:tile-x0="373.9822" />
      <circle id="use14168" style="fill:#3465a4;fill-opacity:1;fill-rule:nonzero;stroke:#ffffff;stroke-width:0.3344132;display:inline;visibility:visible" r="1.3405904" cx="8.0004902" cy="3.5340495" inkscape:tile-y0="136.8702" inkscape:tile-x0="373.9822" />
      <circle id="use14170" style="fill:#3465a4;fill-opacity:1;fill-rule:nonzero;stroke:#ffffff;stroke-width:0.3344132;display:inline;visibility:visible" r="1.3405904" cx="2.75249" cy="4.9726496" inkscape:tile-y0="136.8702" inkscape:tile-x0="373.9822" />
      <circle id="use14172" style="fill:#204a87;fill-opacity:1;fill-rule:nonzero;stroke:#ffffff;stroke-width:0.3344132;display:inline;visibility:visible" r="1.3405904" cx="5.3174901" cy="5.2439494" inkscape:tile-y0="136.8702" inkscape:tile-x0="373.9822" />
      <circle id="use14174" style="fill:#204a87;fill-opacity:1;fill-rule:nonzero;stroke:#ffffff;stroke-width:0.3344132;display:inline;visibility:visible" r="1.3405904" cx="5.24049" cy="10.67865" inkscape:tile-y0="136.8702" inkscape:tile-x0="373.9822" />
      <circle id="use14176" style="fill:#204a87;fill-opacity:1;fill-rule:nonzero;stroke:#ffffff;stroke-width:0.3344132;display:inline;visibility:visible" r="1.3405904" cx="8.0004902" cy="6.1351495" inkscape:tile-y0="136.8702" inkscape:tile-x0="373.9822" />
      <circle id="use14178" style="fill:#204a87;fill-opacity:1;fill-rule:nonzero;stroke:#ffffff;stroke-width:0.3344132;display:inline;visibility:visible" r="1.3405904" cx="10.79949" cy="5.3214498" inkscape:tile-y0="136.8702" inkscape:tile-x0="373.9822" />
      <circle id="use14180" style="fill:#204a87;fill-opacity:1;fill-rule:nonzero;stroke:#ffffff;stroke-width:0.3344132;display:inline;visibility:visible" r="1.3405904" cx="6.0534902" cy="8.0000496" inkscape:tile-y0="136.8702" inkscape:tile-x0="373.9822" />
      <circle id="use14182" style="fill:#204a87;fill-opacity:1;fill-rule:nonzero;stroke:#ffffff;stroke-width:0.3344132;display:inline;visibility:visible" r="1.3405904" cx="8.0004902" cy="9.7098494" inkscape:tile-y0="136.8702" inkscape:tile-x0="373.9822" />
      <circle id="use14184" style="fill:#204a87;fill-opacity:1;fill-rule:nonzero;stroke:#ffffff;stroke-width:0.3344132;display:inline;visibility:visible" r="1.3405904" cx="9.7914896" cy="8.0000496" inkscape:tile-y0="136.8702" inkscape:tile-x0="373.9822" />
      <circle id="use14186" style="fill:#204a87;fill-opacity:1;fill-rule:nonzero;stroke:#ffffff;stroke-width:0.3344132;display:inline;visibility:visible" r="1.3405904" cx="8.0004902" cy="8.0000496" inkscape:tile-y0="136.8702" inkscape:tile-x0="373.9822" />
      <circle id="use14188" style="fill:#204a87;fill-opacity:1;fill-rule:nonzero;stroke:#ffffff;stroke-width:0.3344132;display:inline;visibility:visible" r="1.3405904" cx="10.72149" cy="10.717349" inkscape:tile-y0="136.8702" inkscape:tile-x0="373.9822" />
      <circle id="use14190" style="fill:#729fcf;fill-opacity:1;fill-rule:nonzero;stroke:#ffffff;stroke-width:0.3344132;display:inline;visibility:visible" r="1.3405904" cx="2.09249" cy="14.054749" inkscape:tile-y0="136.8702" inkscape:tile-x0="373.9822" />
      <circle id="use14192" style="fill:#729fcf;fill-opacity:1;fill-rule:nonzero;stroke:#ffffff;stroke-width:0.3344132;display:inline;visibility:visible" r="1.3405904" cx="13.90749" cy="14.054749" inkscape:tile-y0="136.8702" inkscape:tile-x0="373.9822" />
    </g>
  </g>
</svg>
