<?xml version="1.0" encoding="UTF-8" standalone="no"?>
<!-- Created with Inkscape (http://www.inkscape.org/) -->

<svg xmlns:dc="http://purl.org/dc/elements/1.1/" xmlns:cc="http://creativecommons.org/ns#" xmlns:rdf="http://www.w3.org/1999/02/22-rdf-syntax-ns#" xmlns:svg="http://www.w3.org/2000/svg" xmlns="http://www.w3.org/2000/svg" xmlns:xlink="http://www.w3.org/1999/xlink" xmlns:sodipodi="http://sodipodi.sourceforge.net/DTD/sodipodi-0.dtd" xmlns:inkscape="http://www.inkscape.org/namespaces/inkscape" id="SVGRoot" version="1.1" inkscape:version="0.92+devel (78cebbf91, 2017-07-21, custom)" width="16px" height="16px" viewBox="0 0 16 16" sodipodi:docname="object-visible.svg">
  <sodipodi:namedview id="base" pagecolor="#ffffff" bordercolor="#666666" borderopacity="1.0" inkscape:pageopacity="0.0" inkscape:pageshadow="2" inkscape:zoom="16.0" inkscape:cx="8.0" inkscape:cy="8.0" inkscape:document-units="px" inkscape:current-layer="visible" inkscape:document-rotation="0" showgrid="false" inkscape:grid-bbox="true" />
  <defs id="defs12515">
    <linearGradient id="linearGradient13887" inkscape:collect="always" xlink:href="#linearGradient13602" x1="4.4194169" y1="3.52262" x2="20.01996" y2="3.52262" gradientUnits="userSpaceOnUse" gradientTransform="matrix(0.998754,0,0,1,1104.005,1542)" />
    <linearGradient id="linearGradient13602" inkscape:collect="always">
      <stop id="stop13604" style="stop-color:#888a85;stop-opacity:1" offset="0" />
      <stop id="stop13606" style="stop-color:#888a85;stop-opacity:0" offset="1" />
    </linearGradient>
    <radialGradient id="radialGradient13871" inkscape:collect="always" xlink:href="#linearGradient13707" r="6.1412101" cx="1110.5" cy="1543" gradientUnits="userSpaceOnUse" gradientTransform="matrix(1.319998,0,0,0.9601076,-349.9223,67.4643)" fx="1110.5" fy="1543" />
    <linearGradient id="linearGradient13707">
      <stop id="stop13709" style="stop-color:#ffffff;stop-opacity:1" offset="0" />
      <stop id="stop13711" style="stop-color:#ffffff;stop-opacity:1" offset="0.55299991" />
      <stop id="stop13713" style="stop-color:#a2a2a2;stop-opacity:1" offset="1" />
    </linearGradient>
    <linearGradient id="linearGradient14236" inkscape:collect="always" xlink:href="#linearGradient14230" x1="1117.193" y1="1545" x2="1123.9" y2="1545" gradientUnits="userSpaceOnUse" />
    <linearGradient id="linearGradient14230" inkscape:collect="always">
      <stop id="stop14232" style="stop-color:#555753;stop-opacity:1" offset="0" />
      <stop id="stop14234" style="stop-color:#555753;stop-opacity:0" offset="1" />
    </linearGradient>
  </defs>
  <metadata id="metadata12518">
    <rdf:RDF>
      <cc:Work rdf:about="">
        <dc:format>image/svg+xml</dc:format>
        <dc:type rdf:resource="http://purl.org/dc/dcmitype/StillImage" />
        <dc:title></dc:title>
      </cc:Work>
    </rdf:RDF>
  </metadata>
  <g inkscape:label="Layer 1" id="layer1" inkscape:groupmode="layer">
    <g id="visible" style="display:inline" transform="translate(-1108,-1539)">
      <rect id="rect13841" style="opacity:1;fill:#ffffff;fill-opacity:0;fill-rule:evenodd;stroke:none;stroke-opacity:1;stroke-width:0.83269;stroke-linecap:round;stroke-linejoin:round;stroke-miterlimit:4;stroke-dasharray:none;stroke-dashoffset:0;display:inline" width="16" height="16" x="1108" y="1539" />
      <path id="path13575" style="fill:url(#linearGradient13887);fill-opacity:1;fill-rule:evenodd;stroke:none;stroke-opacity:1;stroke-width:0.99999988;stroke-linecap:butt;stroke-linejoin:miter;stroke-miterlimit:4;stroke-dasharray:none;stroke-dashoffset:0.60000002;marker:none;marker-end:none;marker-mid:none;marker-start:none;display:inline;visibility:visible" d="m 1109.622,1549.044 -1.203,-0.531 c 0.927,-5.922 6.9,-9.811 15.331,-2.607 l -0.147,3.105 v 0.024 c -2.279,-1.955 -4.242,-4.466 -8.285,-4.466 -4.642,0.062 -5.365,3.613 -5.692,4.475 z" inkscape:connector-curvature="0" sodipodi:nodetypes="ccccccc" />
      <path id="path14269" style="fill:url(#radialGradient13871);fill-opacity:1;fill-rule:evenodd;stroke:#555753;stroke-opacity:1;stroke-width:1.00000012;stroke-linecap:butt;stroke-linejoin:round;stroke-miterlimit:4;stroke-dasharray:none;stroke-dashoffset:0.60000002;marker:none;marker-end:none;marker-mid:none;marker-start:none;display:inline;visibility:visible" d="m 1123.36,1549.035 c -2.177,2.806 -4.796,3.465 -7.425,3.465 -2.629,0 -5.926,-0.456 -6.435,-3.465 0.552,-2.751 1.98,-4.434 5.647,-4.466 4.008,-0.034 5.954,2.511 8.213,4.466 z" inkscape:connector-curvature="0" sodipodi:nodetypes="czcsc" />
      <circle id="path14276" style="fill:#204a87;fill-opacity:1;fill-rule:evenodd;stroke:none;stroke-opacity:1;stroke-width:0.66666889;stroke-linecap:butt;stroke-linejoin:miter;stroke-miterlimit:4;stroke-dasharray:none;stroke-dashoffset:0.60000002;display:inline;visibility:visible" transform="matrix(1.74782,0,0,1.75,-824.589,-1151.749)" r="2" cx="1110" cy="1543" />
      <circle id="path13698" style="fill:#3465a4;fill-opacity:1;fill-rule:evenodd;stroke:none;stroke-opacity:1;stroke-width:0.66666889;stroke-linecap:butt;stroke-linejoin:miter;stroke-miterlimit:4;stroke-dasharray:none;stroke-dashoffset:0.60000002;display:inline;visibility:visible" transform="matrix(0.9987705,0,0,0.8999911,6.356077,159.1149)" r="2" cx="1110" cy="1543" />
      <circle id="path13700" style="fill:#729fcf;fill-opacity:1;fill-rule:evenodd;stroke:none;stroke-opacity:1;stroke-width:0.66666889;stroke-linecap:butt;stroke-linejoin:miter;stroke-miterlimit:4;stroke-dasharray:none;stroke-dashoffset:0.60000002;display:inline;visibility:visible" transform="matrix(0.4994181,0,0,0.4000183,560.1378,930.1728)" r="2" cx="1110" cy="1543" />
      <path id="path13565" style="fill:none;fill-rule:evenodd;stroke:url(#linearGradient14236);stroke-opacity:1;stroke-width:1px;stroke-linecap:butt;stroke-linejoin:miter" d="m 1108.5,1548.5 c 0.886,-5.926 7.584,-10.923 14.9,-2.609" inkscape:connector-curvature="0" sodipodi:nodetypes="cs" />
    </g>
  </g>
</svg>
