<?xml version="1.0" encoding="UTF-8" standalone="no"?>
<!-- Created with Inkscape (http://www.inkscape.org/) -->

<svg xmlns:dc="http://purl.org/dc/elements/1.1/" xmlns:cc="http://creativecommons.org/ns#" xmlns:rdf="http://www.w3.org/1999/02/22-rdf-syntax-ns#" xmlns:svg="http://www.w3.org/2000/svg" xmlns="http://www.w3.org/2000/svg" xmlns:sodipodi="http://sodipodi.sourceforge.net/DTD/sodipodi-0.dtd" xmlns:inkscape="http://www.inkscape.org/namespaces/inkscape" id="SVGRoot" version="1.1" inkscape:version="0.92+devel (78cebbf91, 2017-07-21, custom)" width="16px" height="16px" viewBox="0 0 16 16" sodipodi:docname="on.svg">
  <sodipodi:namedview id="base" pagecolor="#ffffff" bordercolor="#666666" borderopacity="1.0" inkscape:pageopacity="0.0" inkscape:pageshadow="2" inkscape:zoom="16.0" inkscape:cx="8.0" inkscape:cy="8.0" inkscape:document-units="px" inkscape:current-layer="on" inkscape:document-rotation="0" showgrid="false" inkscape:grid-bbox="true">
    <inkscape:grid type="xygrid" id="grid15342" />
  </sodipodi:namedview>
  <defs id="defs15312" />
  <metadata id="metadata15315">
    <rdf:RDF>
      <cc:Work rdf:about="">
        <dc:format>image/svg+xml</dc:format>
        <dc:type rdf:resource="http://purl.org/dc/dcmitype/StillImage" />
        <dc:title></dc:title>
      </cc:Work>
    </rdf:RDF>
  </metadata>
  <g inkscape:label="Layer 1" id="layer1" inkscape:groupmode="layer">
    <g id="on" style="display:inline">
      <circle id="ellipse47658" style="color:#000000;fill:#3a7304;fill-opacity:1;fill-rule:evenodd;stroke:#8d8d8d;stroke-opacity:1;stroke-width:1;stroke-linecap:butt;stroke-linejoin:round;stroke-miterlimit:4;stroke-dasharray:none;stroke-dashoffset:0;display:inline;visibility:visible" r="6.515604" cx="8" cy="8" />
      <path id="path47660" style="color:#000000;fill:none;stroke:#ffffff;stroke-opacity:1;stroke-width:1;stroke-linecap:butt;stroke-linejoin:miter;stroke-miterlimit:4;stroke-dasharray:none;stroke-dashoffset:0;marker:none;display:inline;visibility:visible" d="m 4.8635499,8.0603075 2.03195,1.896 4.2409501,-3.9125" inkscape:connector-curvature="0" sodipodi:nodetypes="ccc" />
      <circle id="ellipse47662" style="color:#000000;fill:none;stroke:#ffffff;stroke-opacity:1;stroke-width:0.87235308;stroke-linecap:butt;stroke-linejoin:round;stroke-miterlimit:4;stroke-dasharray:none;stroke-dashoffset:0;display:inline;visibility:visible" r="5.6839075" cx="8" cy="8" />
      <rect id="rect47664" style="color:#000000;fill:none;stroke:none;stroke-width:0.53149599;display:inline" width="16" height="16" x="0" y="0" />
    </g>
  </g>
</svg>
