<?xml version="1.0" encoding="UTF-8" standalone="no"?>
<!-- Created with Inkscape (http://www.inkscape.org/) -->

<svg xmlns:dc="http://purl.org/dc/elements/1.1/" xmlns:cc="http://creativecommons.org/ns#" xmlns:rdf="http://www.w3.org/1999/02/22-rdf-syntax-ns#" xmlns:svg="http://www.w3.org/2000/svg" xmlns="http://www.w3.org/2000/svg" xmlns:sodipodi="http://sodipodi.sourceforge.net/DTD/sodipodi-0.dtd" xmlns:inkscape="http://www.inkscape.org/namespaces/inkscape" id="SVGRoot" version="1.1" inkscape:version="0.92+devel (78cebbf91, 2017-07-21, custom)" width="16px" height="16px" viewBox="0 0 16 16" sodipodi:docname="path-tweak-repel.svg">
  <sodipodi:namedview id="base" pagecolor="#ffffff" bordercolor="#666666" borderopacity="1.0" inkscape:pageopacity="0.0" inkscape:pageshadow="2" inkscape:zoom="16.0" inkscape:cx="8.0" inkscape:cy="8.0" inkscape:document-units="px" inkscape:current-layer="tweak_repel_mode" inkscape:document-rotation="0" showgrid="false" inkscape:grid-bbox="true" />
  <defs id="defs10888" />
  <metadata id="metadata10891">
    <rdf:RDF>
      <cc:Work rdf:about="">
        <dc:format>image/svg+xml</dc:format>
        <dc:type rdf:resource="http://purl.org/dc/dcmitype/StillImage" />
        <dc:title></dc:title>
      </cc:Work>
    </rdf:RDF>
  </metadata>
  <g inkscape:label="Layer 1" id="layer1" inkscape:groupmode="layer">
    <g id="tweak_repel_mode" style="display:inline" transform="translate(-1368,-272)">
      <rect id="rect9576" style="fill:none;fill-opacity:0.16788318;fill-rule:evenodd;stroke:none;stroke-opacity:1;stroke-width:1;stroke-linecap:round;stroke-linejoin:round;stroke-miterlimit:0;stroke-dasharray:none;stroke-dashoffset:0;display:inline" width="16" height="16" x="1368" y="272" />
      <path id="path9578" style="fill:#729fcf;fill-opacity:1;fill-rule:nonzero;stroke:none;stroke-opacity:1;stroke-width:1;stroke-linecap:butt;stroke-linejoin:miter;stroke-miterlimit:4;stroke-dasharray:none;stroke-dashoffset:0;marker:none;marker-end:none;marker-mid:none;marker-start:none;display:inline;visibility:visible" d="m 1368.307,283.1793 c 3.327,-0.0294 2.782,2.5458 7.742,2.5134 4.961,-0.0324 3.438,-2.5873 7.644,-2.5134 v -2.9853 c -3.785,0 -4.587,3.5814 -7.65,3.5842 -3.403,0.003 -4.04,-3.5842 -7.736,-3.5842 z" inkscape:connector-curvature="0" sodipodi:nodetypes="czccscc" />
      <path id="path9582" style="fill:#729fcf;fill-opacity:1;fill-rule:nonzero;stroke:none;stroke-opacity:1;stroke-width:1;stroke-linecap:butt;stroke-linejoin:miter;stroke-miterlimit:4;stroke-dasharray:none;stroke-dashoffset:0;marker:none;marker-end:none;marker-mid:none;marker-start:none;display:inline;visibility:visible" d="m 1368.307,275.8208 c 3.327,0.0293 2.782,-2.5459 7.742,-2.5135 4.961,0.0324 3.438,2.5873 7.644,2.5135 v 2.9852 c -3.785,0 -4.587,-3.5814 -7.65,-3.5841 -3.403,-0.003 -4.04,3.5841 -7.736,3.5841 z" inkscape:connector-curvature="0" sodipodi:nodetypes="czccscc" />
      <path id="path9580" style="fill:none;fill-opacity:1;fill-rule:nonzero;stroke:#204a87;stroke-opacity:1;stroke-width:0.61400002;stroke-linecap:round;stroke-linejoin:miter;stroke-miterlimit:4;stroke-dasharray:none;stroke-dashoffset:0;marker:none;marker-end:none;marker-mid:none;marker-start:none;display:inline;visibility:visible" d="m 1383.693,280.1941 c -3.785,0 -4.587,3.6398 -7.65,3.6425 -3.403,0.003 -4.04,-3.6425 -7.736,-3.6425 m 0,2.9852 c 3.327,-0.0294 2.782,2.5458 7.742,2.5134 4.961,-0.0324 3.438,-2.5872 7.644,-2.5134 m 0,-4.3734 c -3.785,0 -4.587,-3.5968 -7.65,-3.5996 -3.403,-0.003 -4.04,3.5996 -7.736,3.5996 m 0,-2.9852 c 3.327,0.0294 2.782,-2.5458 7.742,-2.5134 4.961,0.0324 3.438,2.5872 7.644,2.5134" inkscape:connector-curvature="0" />
      <path id="path12578" style="fill:none;fill-opacity:1;fill-rule:nonzero;stroke:#ffffff;stroke-opacity:0.50196078;stroke-width:0.5;stroke-linecap:round;stroke-linejoin:miter;stroke-miterlimit:4;stroke-dasharray:none;stroke-dashoffset:0;marker:none;marker-end:none;marker-mid:none;marker-start:none;display:inline;visibility:visible" d="m 1383.693,281.1941 c -3.785,0 -4.587,3.6398 -7.65,3.6425 -3.403,0.003 -4.04,-3.6425 -7.736,-3.6425 m 0,0.9852 c 3.327,-0.0294 2.782,2.5458 7.742,2.5134 4.961,-0.0324 3.438,-2.5872 7.644,-2.5134 m 0,-4.3734 c -3.785,0 -4.587,-3.5968 -7.65,-3.5996 -3.403,-0.003 -4.04,3.5996 -7.736,3.5996 m 0,-0.9852 c 3.327,0.0294 2.782,-2.5458 7.742,-2.5134 4.961,0.0324 3.438,2.5872 7.644,2.5134" inkscape:connector-curvature="0" sodipodi:nodetypes="csccsccsccsc" />
    </g>
  </g>
</svg>
