<?xml version="1.0" encoding="UTF-8" standalone="no"?>
<!-- Created with Inkscape (http://www.inkscape.org/) -->

<svg xmlns:dc="http://purl.org/dc/elements/1.1/" xmlns:cc="http://creativecommons.org/ns#" xmlns:rdf="http://www.w3.org/1999/02/22-rdf-syntax-ns#" xmlns:svg="http://www.w3.org/2000/svg" xmlns="http://www.w3.org/2000/svg" xmlns:xlink="http://www.w3.org/1999/xlink" xmlns:sodipodi="http://sodipodi.sourceforge.net/DTD/sodipodi-0.dtd" xmlns:inkscape="http://www.inkscape.org/namespaces/inkscape" id="SVGRoot" version="1.1" inkscape:version="0.92+devel (78cebbf91, 2017-07-21, custom)" width="16px" height="16px" viewBox="0 0 16 16" sodipodi:docname="path-mask-edit.svg">
  <sodipodi:namedview id="base" pagecolor="#ffffff" bordercolor="#666666" borderopacity="1.0" inkscape:pageopacity="0.0" inkscape:pageshadow="2" inkscape:zoom="16.0" inkscape:cx="8.0" inkscape:cy="8.0" inkscape:document-units="px" inkscape:current-layer="nodeedit-mask" inkscape:document-rotation="0" showgrid="false" inkscape:grid-bbox="true" />
  <defs id="defs14181">
    <linearGradient id="linearGradient15202" inkscape:collect="always" xlink:href="#linearGradient15196" x1="1635.032" y1="197.81371" x2="1641.696" y2="207.3813" gradientUnits="userSpaceOnUse" />
    <linearGradient id="linearGradient15196" inkscape:collect="always">
      <stop id="stop15198" style="stop-color:#2e3436;stop-opacity:1" offset="0" />
      <stop id="stop15200" style="stop-color:#2e3436;stop-opacity:0" offset="1" />
    </linearGradient>
    <linearGradient id="linearGradient15194" inkscape:collect="always" xlink:href="#linearGradient15196" x1="1636.12" y1="197.0316" x2="1646" y2="203.5723" gradientUnits="userSpaceOnUse" />
    <linearGradient id="linearGradient7450" inkscape:collect="always" xlink:href="#linearGradient7430" x1="12.19759" y1="401.09631" x2="15.69898" y2="404.59769" gradientUnits="userSpaceOnUse" gradientTransform="matrix(1.145834,0,0,1.139865,-23.46877,-45.70193)" />
    <linearGradient id="linearGradient7430" inkscape:collect="always">
      <stop id="stop7432" style="stop-color:#d3d7cf;stop-opacity:1" offset="0" />
      <stop id="stop7434" style="stop-color:#fafbfa;stop-opacity:1" offset="1" />
    </linearGradient>
    <linearGradient id="linearGradient7452" inkscape:collect="always" xlink:href="#linearGradient8357" x1="-8.6875" y1="410.10919" x2="-8.6875" y2="417.38629" gradientUnits="userSpaceOnUse" gradientTransform="matrix(0.825,0,0,0.8250133,-1.400026,72.28586)" />
    <linearGradient id="linearGradient8357" inkscape:collect="always">
      <stop id="stop8359" style="stop-color:white;stop-opacity:1" offset="0" />
      <stop id="stop8361" style="stop-color:white;stop-opacity:0" offset="1" />
    </linearGradient>
    <linearGradient id="linearGradient14264" inkscape:collect="always" xlink:href="#linearGradient7430" x1="12.19759" y1="401.09631" x2="15.69898" y2="404.59769" gradientUnits="userSpaceOnUse" gradientTransform="matrix(1.145834,0,0,1.139865,-23.46877,-45.70193)" />
    <linearGradient id="linearGradient14266" inkscape:collect="always" xlink:href="#linearGradient8357" x1="-8.6875" y1="410.10919" x2="-8.6875" y2="417.38629" gradientUnits="userSpaceOnUse" gradientTransform="matrix(0.825,0,0,0.8250133,-1.400026,72.28586)" />
  </defs>
  <metadata id="metadata14184">
    <rdf:RDF>
      <cc:Work rdf:about="">
        <dc:format>image/svg+xml</dc:format>
        <dc:type rdf:resource="http://purl.org/dc/dcmitype/StillImage" />
        <dc:title></dc:title>
      </cc:Work>
    </rdf:RDF>
  </metadata>
  <g inkscape:label="Layer 1" id="layer1" inkscape:groupmode="layer">
    <g id="nodeedit-mask" style="display:inline" transform="translate(-1630,-192)">
      <path id="path15170" style="fill:none;fill-rule:evenodd;stroke:url(#linearGradient15202);stroke-opacity:1;stroke-width:0.96987909px;stroke-linecap:round;stroke-linejoin:miter;display:inline" d="m 1638.511,207.5151 c 2.876,-3.1264 0.148,-6.2119 -8.066,-13.9228" inkscape:connector-curvature="0" sodipodi:nodetypes="cz" />
      <path id="path15172" style="fill:none;fill-rule:evenodd;stroke:url(#linearGradient15194);stroke-opacity:1;stroke-width:0.9541949px;stroke-linecap:round;stroke-linejoin:bevel;display:inline" d="m 1645.523,200.7345 c -3.285,3.0635 -8.543,-2.6167 -13.964,-8.2656" inkscape:connector-curvature="0" sodipodi:nodetypes="cz" />
      <path id="path15174" style="fill:none;fill-opacity:1;fill-rule:evenodd;stroke:#204a87;stroke-opacity:1;stroke-width:3;stroke-linecap:round;stroke-linejoin:miter;stroke-miterlimit:4;stroke-dasharray:none" d="m 1641,195 c -5.272,0 -8,2.6125 -8,8" inkscape:connector-curvature="0" sodipodi:nodetypes="cc" />
      <path id="path15176" style="fill:none;fill-opacity:1;fill-rule:evenodd;stroke:#729fcf;stroke-opacity:1;stroke-width:1.00000024px;stroke-linecap:round;stroke-linejoin:miter" d="m 1640.96,194.9602 c -4.741,0 -7.944,1.7171 -7.944,7.2646" inkscape:connector-curvature="0" sodipodi:nodetypes="cc" />
      <g inkscape:label="#g14630" id="use15178" transform="translate(195,-5)">
        <g id="g7446" transform="matrix(0.7272727,0,0,0.7310807,1453.818,-102.0049)">
          <path id="path7442" style="fill:url(#linearGradient14264);fill-opacity:1;stroke:#888a85;stroke-opacity:1;stroke-width:1.37141466;stroke-linecap:round;stroke-linejoin:round;stroke-miterlimit:4" d="m -11.43753,409.6741 h 6.875005 v 6.8392 h -6.875005 z" inkscape:connector-curvature="0" />
          <path id="path7444" style="fill:none;fill-opacity:1;stroke:url(#linearGradient14266);stroke-opacity:1;stroke-width:1.3714149;stroke-linecap:round;stroke-linejoin:miter;stroke-miterlimit:4" d="m -10.06253,411.042 h 4.125005 v 4.1035 h -4.125005 z" inkscape:connector-curvature="0" />
        </g>
      </g>
      <g inkscape:label="#g14630" id="use15180" transform="translate(185,5)">
        <g id="g7458" transform="matrix(0.7272727,0,0,0.7310807,1453.818,-102.0049)">
          <path id="path7454" style="fill:url(#linearGradient7450);fill-opacity:1;stroke:#888a85;stroke-opacity:1;stroke-width:1.37141466;stroke-linecap:round;stroke-linejoin:round;stroke-miterlimit:4" d="m -11.43753,409.6741 h 6.875005 v 6.8392 h -6.875005 z" inkscape:connector-curvature="0" />
          <path id="path7456" style="fill:none;fill-opacity:1;stroke:url(#linearGradient7452);stroke-opacity:1;stroke-width:1.3714149;stroke-linecap:round;stroke-linejoin:miter;stroke-miterlimit:4" d="m -10.06253,411.042 h 4.125005 v 4.1035 h -4.125005 z" inkscape:connector-curvature="0" />
        </g>
      </g>
    </g>
  </g>
</svg>
