<?xml version="1.0" encoding="UTF-8" standalone="no"?>
<!-- Created with Inkscape (http://www.inkscape.org/) -->

<svg xmlns:dc="http://purl.org/dc/elements/1.1/" xmlns:cc="http://creativecommons.org/ns#" xmlns:rdf="http://www.w3.org/1999/02/22-rdf-syntax-ns#" xmlns:svg="http://www.w3.org/2000/svg" xmlns="http://www.w3.org/2000/svg" xmlns:sodipodi="http://sodipodi.sourceforge.net/DTD/sodipodi-0.dtd" xmlns:inkscape="http://www.inkscape.org/namespaces/inkscape" id="SVGRoot" version="1.1" inkscape:version="0.92+devel (78cebbf91, 2017-07-21, custom)" width="16px" height="16px" viewBox="0 0 16 16" sodipodi:docname="path-tweak-attract.svg">
  <sodipodi:namedview id="base" pagecolor="#ffffff" bordercolor="#666666" borderopacity="1.0" inkscape:pageopacity="0.0" inkscape:pageshadow="2" inkscape:zoom="16.0" inkscape:cx="8.0" inkscape:cy="8.0" inkscape:document-units="px" inkscape:current-layer="tweak_attract_mode" inkscape:document-rotation="0" showgrid="false" inkscape:grid-bbox="true" />
  <defs id="defs10823" />
  <metadata id="metadata10826">
    <rdf:RDF>
      <cc:Work rdf:about="">
        <dc:format>image/svg+xml</dc:format>
        <dc:type rdf:resource="http://purl.org/dc/dcmitype/StillImage" />
        <dc:title></dc:title>
      </cc:Work>
    </rdf:RDF>
  </metadata>
  <g inkscape:label="Layer 1" id="layer1" inkscape:groupmode="layer">
    <g id="tweak_attract_mode" style="display:inline" transform="translate(-1344,-272)">
      <rect id="rect9564" style="fill:none;fill-opacity:0.16788318;fill-rule:evenodd;stroke:none;stroke-opacity:1;stroke-width:1;stroke-linecap:round;stroke-linejoin:round;stroke-miterlimit:0;stroke-dasharray:none;stroke-dashoffset:0;display:inline" width="16" height="16" x="1344" y="272" />
      <path id="path9566" style="fill:#729fcf;fill-opacity:1;fill-rule:nonzero;stroke:none;stroke-opacity:1;stroke-width:1;stroke-linecap:butt;stroke-linejoin:miter;stroke-miterlimit:4;stroke-dasharray:none;stroke-dashoffset:0;marker:none;marker-end:none;marker-mid:none;marker-start:none;display:inline;visibility:visible" d="m 1344.307,282.7078 c 3.327,0.0293 2.782,-2.5458 7.742,-2.5134 4.961,0.0323 3.438,2.5872 7.644,2.5134 v 2.9852 c -3.785,0 -4.587,-3.9321 -7.65,-3.9349 -3.403,-0.003 -4.04,3.9349 -7.736,3.9349 z" inkscape:connector-curvature="0" sodipodi:nodetypes="czccscc" />
      <path id="path9570" style="fill:#729fcf;fill-opacity:1;fill-rule:nonzero;stroke:none;stroke-opacity:1;stroke-width:1;stroke-linecap:butt;stroke-linejoin:miter;stroke-miterlimit:4;stroke-dasharray:none;stroke-dashoffset:0;marker:none;marker-end:none;marker-mid:none;marker-start:none;display:inline;visibility:visible" d="m 1344.307,276.2922 c 3.327,-0.0293 2.782,2.5458 7.742,2.5134 4.961,-0.0324 3.438,-2.5872 7.644,-2.5134 v -2.9852 c -3.785,0 -4.587,3.6398 -7.65,3.6425 -3.403,0.003 -4.04,-3.6425 -7.736,-3.6425 z" inkscape:connector-curvature="0" sodipodi:nodetypes="czccscc" />
      <path id="path9568" style="fill:none;fill-opacity:1;fill-rule:nonzero;stroke:#204a87;stroke-opacity:1;stroke-width:0.61400002;stroke-linecap:round;stroke-linejoin:miter;stroke-miterlimit:4;stroke-dasharray:none;stroke-dashoffset:0;marker:none;marker-end:none;marker-mid:none;marker-start:none;display:inline;visibility:visible" d="m 1359.693,285.693 c -3.785,0 -4.587,-3.8737 -7.65,-3.8764 -3.403,-0.003 -4.04,3.8764 -7.736,3.8764 m 0,-2.9852 c 3.327,0.0293 2.782,-2.5458 7.742,-2.5134 4.961,0.0323 3.438,2.5872 7.644,2.5134 m 0,-9.4008 c -3.785,0 -4.587,3.7567 -7.65,3.7595 -3.403,0.003 -4.04,-3.7595 -7.736,-3.7595 m 0,2.9852 c 3.327,-0.0293 2.782,2.5458 7.742,2.5134 4.961,-0.0323 3.438,-2.5872 7.644,-2.5134" inkscape:connector-curvature="0" />
      <path id="path12576" style="fill:none;fill-opacity:1;fill-rule:nonzero;stroke:#ffffff;stroke-opacity:0.50196078;stroke-width:0.5;stroke-linecap:round;stroke-linejoin:miter;stroke-miterlimit:4;stroke-dasharray:none;stroke-dashoffset:0;marker:none;marker-end:none;marker-mid:none;marker-start:none;display:inline;visibility:visible" d="m 1359.693,284.693 c -3.785,0 -4.587,-3.8737 -7.65,-3.8764 -3.403,-0.003 -4.04,3.8764 -7.736,3.8764 m 0,-0.9852 c 3.327,0.0293 2.782,-2.5458 7.742,-2.5134 4.961,0.0323 3.438,2.5872 7.644,2.5134 m 0,-9.4008 c -3.785,0 -4.587,3.7567 -7.65,3.7595 -3.403,0.003 -4.04,-3.7595 -7.736,-3.7595 m 0,0.9852 c 3.327,-0.0293 2.782,2.5458 7.742,2.5134 4.961,-0.0323 3.438,-2.5872 7.644,-2.5134" inkscape:connector-curvature="0" sodipodi:nodetypes="csccsccsccsc" />
    </g>
  </g>
</svg>
