<?xml version="1.0" encoding="UTF-8" standalone="no"?>
<!-- Created with Inkscape (http://www.inkscape.org/) -->

<svg xmlns:dc="http://purl.org/dc/elements/1.1/" xmlns:cc="http://creativecommons.org/ns#" xmlns:rdf="http://www.w3.org/1999/02/22-rdf-syntax-ns#" xmlns:svg="http://www.w3.org/2000/svg" xmlns="http://www.w3.org/2000/svg" xmlns:xlink="http://www.w3.org/1999/xlink" xmlns:sodipodi="http://sodipodi.sourceforge.net/DTD/sodipodi-0.dtd" xmlns:inkscape="http://www.inkscape.org/namespaces/inkscape" id="SVGRoot" version="1.1" inkscape:version="0.92+devel (78cebbf91, 2017-07-21, custom)" width="16px" height="16px" viewBox="0 0 16 16" sodipodi:docname="snap-nodes-midpoint.svg">
  <sodipodi:namedview id="base" pagecolor="#ffffff" bordercolor="#666666" borderopacity="1.0" inkscape:pageopacity="0.0" inkscape:pageshadow="2" inkscape:zoom="16.0" inkscape:cx="8.0" inkscape:cy="8.0" inkscape:document-units="px" inkscape:current-layer="toggle_snap_to_midpoints" inkscape:document-rotation="0" showgrid="false" inkscape:grid-bbox="true" />
  <defs id="defs11671">
    <radialGradient id="radialGradient20538" inkscape:collect="always" xlink:href="#linearGradient10735" r="8" cx="391" cy="279" gradientUnits="userSpaceOnUse" gradientTransform="matrix(0.7272727,0,0,0.7310806,1861.909,10.39787)" fx="391" fy="279" />
    <linearGradient id="linearGradient10735">
      <stop id="stop10737" style="stop-color:#c0c0c0;stop-opacity:0" offset="0" />
      <stop id="stop10739" style="stop-color:#c0c0c0;stop-opacity:0" offset="1" />
    </linearGradient>
    <linearGradient id="linearGradient20467" inkscape:collect="always" xlink:href="#linearGradient8331" x1="-16.000059" y1="423.45541" x2="1.000059" y2="423.45541" gradientUnits="userSpaceOnUse" gradientTransform="matrix(1.294118,0,0,1.333333,1.705882,-151.2103)" />
    <linearGradient id="linearGradient8331">
      <stop id="stop8333" style="stop-color:#555753;stop-opacity:0" offset="0" />
      <stop id="stop8339" style="stop-color:#555753;stop-opacity:1" offset="0.12418549" />
      <stop id="stop8341" style="stop-color:#555753;stop-opacity:1" offset="0.86629128" />
      <stop id="stop8335" style="stop-color:#555753;stop-opacity:0" offset="1" />
    </linearGradient>
    <linearGradient id="linearGradient20469" inkscape:collect="always" xlink:href="#linearGradient8343" x1="-16.000219" y1="423.58578" x2="0.58696818" y2="423.58578" gradientUnits="userSpaceOnUse" gradientTransform="matrix(1.294118,0,0,1,1.705882,-10.5436)" />
    <linearGradient id="linearGradient8343">
      <stop id="stop8345" style="stop-color:#babdb6;stop-opacity:0" offset="0" />
      <stop id="stop8351" style="stop-color:#babdb6;stop-opacity:1" offset="0.2" />
      <stop id="stop8353" style="stop-color:#babdb6;stop-opacity:1" offset="0.84444445" />
      <stop id="stop8347" style="stop-color:#babdb6;stop-opacity:0" offset="1" />
    </linearGradient>
    <linearGradient id="linearGradient7430" inkscape:collect="always">
      <stop id="stop7432" style="stop-color:#d3d7cf;stop-opacity:1" offset="0" />
      <stop id="stop7434" style="stop-color:#fafbfa;stop-opacity:1" offset="1" />
    </linearGradient>
    <linearGradient id="linearGradient8357" inkscape:collect="always">
      <stop id="stop8359" style="stop-color:white;stop-opacity:1" offset="0" />
      <stop id="stop8361" style="stop-color:white;stop-opacity:0" offset="1" />
    </linearGradient>
    <linearGradient id="linearGradient20612" inkscape:collect="always" xlink:href="#linearGradient19967" x1="1346.804" y1="214.3213" x2="1348.408" y2="217.1902" gradientUnits="userSpaceOnUse" gradientTransform="matrix(1.125,0,0,1.129507,-23.18753,-41.50168)" />
    <linearGradient id="linearGradient19967">
      <stop id="stop19969" style="stop-color:#73d216" offset="0" />
      <stop id="stop19971" style="stop-color:#4e9a06;stop-opacity:1" offset="1.0000000" />
    </linearGradient>
    <linearGradient id="linearGradient11795" inkscape:collect="always" xlink:href="#linearGradient7430" x1="12.19759" y1="401.09631" x2="15.69898" y2="404.59769" gradientUnits="userSpaceOnUse" gradientTransform="matrix(1.145834,0,0,1.139865,-23.46877,-45.70193)" />
    <linearGradient id="linearGradient11797" inkscape:collect="always" xlink:href="#linearGradient8357" x1="-8.6875" y1="410.10919" x2="-8.6875" y2="417.38629" gradientUnits="userSpaceOnUse" gradientTransform="matrix(0.825,0,0,0.8250133,-1.400026,72.28586)" />
    <linearGradient id="linearGradient11807" inkscape:collect="always" xlink:href="#linearGradient7430" x1="12.19759" y1="401.09631" x2="15.69898" y2="404.59769" gradientUnits="userSpaceOnUse" gradientTransform="matrix(1.145834,0,0,1.139865,-23.46877,-45.70193)" />
    <linearGradient id="linearGradient11809" inkscape:collect="always" xlink:href="#linearGradient8357" x1="-8.6875" y1="410.10919" x2="-8.6875" y2="417.38629" gradientUnits="userSpaceOnUse" gradientTransform="matrix(0.825,0,0,0.8250133,-1.400026,72.28586)" />
  </defs>
  <metadata id="metadata11674">
    <rdf:RDF>
      <cc:Work rdf:about="">
        <dc:format>image/svg+xml</dc:format>
        <dc:type rdf:resource="http://purl.org/dc/dcmitype/StillImage" />
        <dc:title></dc:title>
      </cc:Work>
    </rdf:RDF>
  </metadata>
  <g inkscape:label="Layer 1" id="layer1" inkscape:groupmode="layer">
    <g id="toggle_snap_to_midpoints" style="display:inline" transform="translate(-1464,-128)">
      <rect id="rect20453" style="fill:url(#radialGradient20538);fill-opacity:1;fill-rule:evenodd;stroke:none;stroke-width:1.1902318;display:inline;visibility:visible" width="16" height="15.99999" x="1464" y="128" />
      <g id="g20455" transform="matrix(0.4010153,-0.401016,0.5216785,0.5216801,1259.153,-82.5365)">
        <path id="path20457" style="fill:url(#linearGradient20467);fill-opacity:1;stroke:none" d="M -19,411.4564 H 3 v 4 h -22 z" inkscape:connector-curvature="0" />
        <path id="path20459" style="fill:url(#linearGradient20469);fill-opacity:1;stroke:none" d="M -19,412.4564 H 3 v 1 h -22 z" inkscape:connector-curvature="0" />
      </g>
      <g inkscape:label="#g14630" id="use20461" style="display:inline" transform="translate(19,-59)">
        <g id="g11791" transform="matrix(0.7272727,0,0,0.7310807,1453.818,-102.0049)">
          <path id="path11787" style="fill:url(#linearGradient11795);fill-opacity:1;stroke:#888a85;stroke-opacity:1;stroke-width:1.37141466;stroke-linecap:round;stroke-linejoin:round;stroke-miterlimit:4" d="m -11.43753,409.6741 h 6.875005 v 6.8392 h -6.875005 z" inkscape:connector-curvature="0" />
          <path id="path11789" style="fill:none;fill-opacity:1;stroke:url(#linearGradient11797);stroke-opacity:1;stroke-width:1.3714149;stroke-linecap:round;stroke-linejoin:miter;stroke-miterlimit:4" d="m -10.06253,411.042 h 4.125005 v 4.1035 h -4.125005 z" inkscape:connector-curvature="0" />
        </g>
      </g>
      <g inkscape:label="#g14630" id="use20463" style="display:inline" transform="translate(29,-69)">
        <g id="g11803" transform="matrix(0.7272727,0,0,0.7310807,1453.818,-102.0049)">
          <path id="path11799" style="fill:url(#linearGradient11807);fill-opacity:1;stroke:#888a85;stroke-opacity:1;stroke-width:1.37141466;stroke-linecap:round;stroke-linejoin:round;stroke-miterlimit:4" d="m -11.43753,409.6741 h 6.875005 v 6.8392 h -6.875005 z" inkscape:connector-curvature="0" />
          <path id="path11801" style="fill:none;fill-opacity:1;stroke:url(#linearGradient11809);stroke-opacity:1;stroke-width:1.3714149;stroke-linecap:round;stroke-linejoin:miter;stroke-miterlimit:4" d="m -10.06253,411.042 h 4.125005 v 4.1035 h -4.125005 z" inkscape:connector-curvature="0" />
        </g>
      </g>
      <g id="g20584" transform="matrix(0.5791607,0,0,0.5780324,607.6914,19.54666)">
        <circle id="path20586" style="fill:url(#linearGradient20612);fill-opacity:1;fill-rule:nonzero;stroke:#3a7304;stroke-opacity:1;stroke-width:1.70351744;stroke-linecap:round;stroke-linejoin:round;stroke-miterlimit:4;stroke-dasharray:none;stroke-dashoffset:0;display:inline;visibility:visible" transform="matrix(1.014556,0,0,1.014565,-21.59559,-3.060751)" r="3.4375" cx="1492.187" cy="201.56261" />
        <circle id="path20588" style="fill:none;stroke:#ffffff;stroke-opacity:0.68877546;stroke-width:1.37499774;stroke-linecap:butt;stroke-linejoin:miter;stroke-miterlimit:4;stroke-dasharray:none;stroke-dashoffset:0;display:inline;visibility:visible" transform="matrix(0.6278689,0,0,0.6290944,555.4028,74.61518)" r="3.4375" cx="1492.187" cy="201.56261" />
      </g>
    </g>
  </g>
</svg>
