<?xml version="1.0" encoding="UTF-8" standalone="no"?>
<!-- Created with Inkscape (http://www.inkscape.org/) -->

<svg xmlns:dc="http://purl.org/dc/elements/1.1/" xmlns:cc="http://creativecommons.org/ns#" xmlns:rdf="http://www.w3.org/1999/02/22-rdf-syntax-ns#" xmlns:svg="http://www.w3.org/2000/svg" xmlns="http://www.w3.org/2000/svg" xmlns:xlink="http://www.w3.org/1999/xlink" xmlns:sodipodi="http://sodipodi.sourceforge.net/DTD/sodipodi-0.dtd" xmlns:inkscape="http://www.inkscape.org/namespaces/inkscape" id="SVGRoot" version="1.1" inkscape:version="0.92+devel (78cebbf91, 2017-07-21, custom)" width="16px" height="16px" viewBox="0 0 16 16" sodipodi:docname="snap-page.svg">
  <sodipodi:namedview id="base" pagecolor="#ffffff" bordercolor="#666666" borderopacity="1.0" inkscape:pageopacity="0.0" inkscape:pageshadow="2" inkscape:zoom="16.0" inkscape:cx="8.0" inkscape:cy="8.0" inkscape:document-units="px" inkscape:current-layer="toggle_snap_page_border" inkscape:document-rotation="0" showgrid="false" inkscape:grid-bbox="true" />
  <defs id="defs12334">
    <linearGradient id="linearGradient20794" inkscape:collect="always" xlink:href="#linearGradient16754" x1="7.0000062" y1="10.00005" x2="7.0000062" y2="1.58227" gradientUnits="userSpaceOnUse" gradientTransform="matrix(1.833341,0,0,1.999999,1530.667,122.9999)" />
    <linearGradient id="linearGradient16754">
      <stop id="stop16756" style="stop-color:white;stop-opacity:1" offset="0.0000000" />
      <stop id="stop16758" style="stop-color:#cdcdcd;stop-opacity:1" offset="1.0000000" />
    </linearGradient>
  </defs>
  <metadata id="metadata12337">
    <rdf:RDF>
      <cc:Work rdf:about="">
        <dc:format>image/svg+xml</dc:format>
        <dc:type rdf:resource="http://purl.org/dc/dcmitype/StillImage" />
        <dc:title></dc:title>
      </cc:Work>
    </rdf:RDF>
  </metadata>
  <g inkscape:label="Layer 1" id="layer1" inkscape:groupmode="layer">
    <g id="toggle_snap_page_border" style="display:inline" transform="translate(-1536,-128)">
      <path id="path20775" style="fill:#3a7304;fill-opacity:1;stroke:none;display:inline" d="m 1538.76,128.0379 c -0.712,0.4415 -1.267,0.9768 -1.76,1.6996 v 12.4959 c 0.467,0.6633 1.001,1.2709 1.625,1.7666 h 9.697 c 0.637,-0.5017 1.2,-1.093 1.676,-1.7666 0,-0.011 0,-0.044 0,-0.055 v -8.7776 -0.7176 l -0.457,-0.5521 -4.027,-4.093 h -6.754 z m 1.489,3.5962 h 4.164 l 2.335,2.5394 v 6.2934 h -6.499 z" inkscape:connector-curvature="0" sodipodi:nodetypes="cccccscccccccccccc" />
      <path id="path20777" style="fill:url(#linearGradient20794);fill-opacity:1;stroke:none;display:inline" d="m 1538,129 7.021,0.062 3.979,3.9375 v 10 h -11 v -14 z" inkscape:connector-curvature="0" sodipodi:nodetypes="cccccc" />
      <path id="path20779" style="fill:#ffffff;fill-opacity:1;stroke:none;display:inline" d="m 1545,133 v -4 l 4,4 z" inkscape:connector-curvature="0" sodipodi:nodetypes="cccc" />
      <rect id="rect20782" style="opacity:0.20434792;fill:#000000;fill-opacity:1;stroke:none;display:inline" width="4.0000248" height="2" x="1545" y="133" />
      <rect id="rect20784" style="opacity:0.11739131;fill:#000000;fill-opacity:1;stroke:none;display:inline" width="1.624707" height="5.987381" x="1543.375" y="129.0126" />
      <rect id="rect21069" style="fill:none;stroke:none;stroke-width:0.1;display:inline" width="16" height="16" x="1536" y="128" />
    </g>
  </g>
</svg>
