<?xml version="1.0" encoding="UTF-8" standalone="no"?>
<!-- Created with Inkscape (http://www.inkscape.org/) -->

<svg xmlns:dc="http://purl.org/dc/elements/1.1/" xmlns:cc="http://creativecommons.org/ns#" xmlns:rdf="http://www.w3.org/1999/02/22-rdf-syntax-ns#" xmlns:svg="http://www.w3.org/2000/svg" xmlns="http://www.w3.org/2000/svg" xmlns:xlink="http://www.w3.org/1999/xlink" xmlns:sodipodi="http://sodipodi.sourceforge.net/DTD/sodipodi-0.dtd" xmlns:inkscape="http://www.inkscape.org/namespaces/inkscape" id="SVGRoot" version="1.1" inkscape:version="0.92+devel (78cebbf91, 2017-07-21, custom)" width="16px" height="16px" viewBox="0 0 16 16" sodipodi:docname="snap-bounding-box.svg">
  <sodipodi:namedview id="base" pagecolor="#ffffff" bordercolor="#666666" borderopacity="1.0" inkscape:pageopacity="0.0" inkscape:pageshadow="2" inkscape:zoom="16.0" inkscape:cx="8.0" inkscape:cy="8.0" inkscape:document-units="px" inkscape:current-layer="toggle_snap_bbox" inkscape:document-rotation="0" showgrid="false" inkscape:grid-bbox="true" />
  <defs id="defs10733">
    <linearGradient id="linearGradient20134" inkscape:collect="always" xlink:href="#linearGradient2485-9" x1="14.71409" y1="395.8765" x2="13.55801" y2="406.5795" gradientUnits="userSpaceOnUse" gradientTransform="matrix(1.125,0,0,1.129507,-23.18753,-41.50168)" />
    <linearGradient id="linearGradient2485-9">
      <stop id="stop2486-3" style="stop-color:#ffffff;stop-opacity:1" offset="0.0000000" />
      <stop id="stop2487-1" style="stop-color:#aaaaaa;stop-opacity:1" offset="1.0000000" />
    </linearGradient>
  </defs>
  <metadata id="metadata10736">
    <rdf:RDF>
      <cc:Work rdf:about="">
        <dc:format>image/svg+xml</dc:format>
        <dc:type rdf:resource="http://purl.org/dc/dcmitype/StillImage" />
        <dc:title></dc:title>
      </cc:Work>
    </rdf:RDF>
  </metadata>
  <g inkscape:label="Layer 1" id="layer1" inkscape:groupmode="layer">
    <g id="toggle_snap_bbox" style="display:inline" transform="translate(-1294,-132)">
      <rect id="rect14408" style="opacity:0;fill:#ffffff;fill-opacity:0;fill-rule:nonzero;stroke:none;stroke-opacity:1;stroke-width:1;stroke-linecap:round;stroke-linejoin:round;stroke-miterlimit:4;stroke-dasharray:none;stroke-dashoffset:0;display:inline;visibility:visible" width="16" height="16" x="1294" y="132" />
      <g id="g14420" transform="translate(-45.81617,-0.1329783)">
        <path id="path20126" style="fill:#3465a4;fill-opacity:1;fill-rule:evenodd;stroke:none;stroke-opacity:1;stroke-width:0.5;stroke-miterlimit:4;stroke-dasharray:none" d="m 1342.837,144.1696 h 1 v 1 h 1 v -1 h 2 v -1 h -2 v -2 h -1 v 2 h -1 z m 1,-6 h 1 v 2 h -1 z m 0,-3 h 1 v 2 h -1 z m 0,-3 h 1 v 2 h -1 z m 0,14 h 1 z m 6,-3 v 1 h -2 v -1 z m 3,0 v 1 h -2 v -1 z m 3,0 v 1 h -2 v -1 z m -14,0 v 1 z" inkscape:connector-curvature="0" sodipodi:nodetypes="ccccccccccccccccccccccccccccccccccccccccccccccccc" />
        <g id="g20128" transform="matrix(0.4714045,-0.4714045,0.4738685,0.4738685,1152.402,-55.92228)">
          <path id="path20130" style="fill:url(#linearGradient20134);fill-opacity:1;stroke:#888a85;stroke-opacity:1;stroke-width:1.49609554;stroke-linecap:round;stroke-linejoin:round;stroke-miterlimit:4" d="m -11.37503,409.7363 h 6.750004 v 6.777 h -6.750004 z" inkscape:connector-curvature="0" />
          <path id="path20132" style="fill:none;fill-opacity:1;stroke:#ffffff;stroke-opacity:1;stroke-width:0.74804771;stroke-linecap:round;stroke-linejoin:miter;stroke-miterlimit:4;stroke-dasharray:none" d="m -10.25003,410.8554 h 4.500004 v 4.4766 h -4.500004 z" inkscape:connector-curvature="0" sodipodi:nodetypes="ccccc" />
        </g>
      </g>
    </g>
  </g>
</svg>
