<?xml version="1.0" encoding="UTF-8" standalone="no"?>
<!-- Created with Inkscape (http://www.inkscape.org/) -->

<svg xmlns:dc="http://purl.org/dc/elements/1.1/" xmlns:cc="http://creativecommons.org/ns#" xmlns:rdf="http://www.w3.org/1999/02/22-rdf-syntax-ns#" xmlns:svg="http://www.w3.org/2000/svg" xmlns="http://www.w3.org/2000/svg" xmlns:xlink="http://www.w3.org/1999/xlink" xmlns:sodipodi="http://sodipodi.sourceforge.net/DTD/sodipodi-0.dtd" xmlns:inkscape="http://www.inkscape.org/namespaces/inkscape" id="SVGRoot" version="1.1" inkscape:version="0.92+devel (78cebbf91, 2017-07-21, custom)" width="16px" height="16px" viewBox="0 0 16 16" sodipodi:docname="snap-nodes-intersection.svg">
  <sodipodi:namedview id="base" pagecolor="#ffffff" bordercolor="#666666" borderopacity="1.0" inkscape:pageopacity="0.0" inkscape:pageshadow="2" inkscape:zoom="16.0" inkscape:cx="8.0" inkscape:cy="8.0" inkscape:document-units="px" inkscape:current-layer="toggle_snap_to_path_intersections" inkscape:document-rotation="0" showgrid="false" inkscape:grid-bbox="true" />
  <defs id="defs11936">
    <linearGradient id="linearGradient20666" inkscape:collect="always" xlink:href="#linearGradient8331" x1="-16.000059" y1="423.45541" x2="1.000059" y2="423.45541" gradientUnits="userSpaceOnUse" gradientTransform="matrix(1.294118,0,0,1.333333,1.705882,-151.2103)" />
    <linearGradient id="linearGradient8331">
      <stop id="stop8333" style="stop-color:#555753;stop-opacity:0" offset="0" />
      <stop id="stop8339" style="stop-color:#555753;stop-opacity:1" offset="0.12418549" />
      <stop id="stop8341" style="stop-color:#555753;stop-opacity:1" offset="0.86629128" />
      <stop id="stop8335" style="stop-color:#555753;stop-opacity:0" offset="1" />
    </linearGradient>
    <linearGradient id="linearGradient20668" inkscape:collect="always" xlink:href="#linearGradient8343" x1="-16.000219" y1="423.58578" x2="0.58696818" y2="423.58578" gradientUnits="userSpaceOnUse" gradientTransform="matrix(1.294118,0,0,1,1.705882,-10.5436)" />
    <linearGradient id="linearGradient8343">
      <stop id="stop8345" style="stop-color:#babdb6;stop-opacity:0" offset="0" />
      <stop id="stop8351" style="stop-color:#babdb6;stop-opacity:1" offset="0.2" />
      <stop id="stop8353" style="stop-color:#babdb6;stop-opacity:1" offset="0.84444445" />
      <stop id="stop8347" style="stop-color:#babdb6;stop-opacity:0" offset="1" />
    </linearGradient>
    <linearGradient id="linearGradient20664" inkscape:collect="always" xlink:href="#linearGradient8343" x1="-16.000219" y1="423.58578" x2="0.58696818" y2="423.58578" gradientUnits="userSpaceOnUse" gradientTransform="matrix(1.294118,0,0,1,1.705883,-10.06438)" />
    <linearGradient id="linearGradient20696" inkscape:collect="always" xlink:href="#linearGradient19967" x1="1346.804" y1="214.3213" x2="1348.408" y2="217.1902" gradientUnits="userSpaceOnUse" gradientTransform="matrix(1.125,0,0,1.129507,-23.18753,-41.50168)" />
    <linearGradient id="linearGradient19967">
      <stop id="stop19969" style="stop-color:#73d216" offset="0" />
      <stop id="stop19971" style="stop-color:#4e9a06;stop-opacity:1" offset="1.0000000" />
    </linearGradient>
    <linearGradient id="linearGradient12057" inkscape:collect="always" xlink:href="#linearGradient8331" x1="-16.000059" y1="423.45541" x2="1.000059" y2="423.45541" gradientUnits="userSpaceOnUse" gradientTransform="matrix(1.294118,0,0,1.333333,1.705882,-151.2103)" />
    <linearGradient id="linearGradient12059" inkscape:collect="always" xlink:href="#linearGradient8343" x1="-16.000219" y1="423.58578" x2="0.58696818" y2="423.58578" gradientUnits="userSpaceOnUse" gradientTransform="matrix(1.294118,0,0,1,1.705882,-10.5436)" />
    <linearGradient id="linearGradient12061" inkscape:collect="always" xlink:href="#linearGradient8331" x1="-16.000059" y1="423.45541" x2="1.000059" y2="423.45541" gradientUnits="userSpaceOnUse" gradientTransform="matrix(1.294118,0,0,1.333333,1.705882,-151.2103)" />
    <linearGradient id="linearGradient12063" inkscape:collect="always" xlink:href="#linearGradient8343" x1="-16.000219" y1="423.58578" x2="0.58696818" y2="423.58578" gradientUnits="userSpaceOnUse" gradientTransform="matrix(1.294118,0,0,1,1.705883,-10.06438)" />
    <linearGradient id="linearGradient12065" inkscape:collect="always" xlink:href="#linearGradient8331" x1="-16.000059" y1="423.45541" x2="1.000059" y2="423.45541" gradientUnits="userSpaceOnUse" gradientTransform="matrix(1.294118,0,0,1.333333,1.705882,-151.2103)" />
  </defs>
  <metadata id="metadata11939">
    <rdf:RDF>
      <cc:Work rdf:about="">
        <dc:format>image/svg+xml</dc:format>
        <dc:type rdf:resource="http://purl.org/dc/dcmitype/StillImage" />
        <dc:title></dc:title>
      </cc:Work>
    </rdf:RDF>
  </metadata>
  <g inkscape:label="Layer 1" id="layer1" inkscape:groupmode="layer">
    <g id="toggle_snap_to_path_intersections" style="display:inline" transform="translate(-1488,-128)">
      <g id="g20618" transform="matrix(0.401016,0.4010153,-0.52168,0.5216786,1712.355,-79.02369)">
        <path id="path20620" style="fill:url(#linearGradient12057);fill-opacity:1;stroke:none" d="M -19,411.4564 H 3 v 4 h -22 z" inkscape:connector-curvature="0" />
        <path id="path20622" style="fill:url(#linearGradient12059);fill-opacity:1;fill-rule:nonzero;stroke:none;stroke-width:1;marker:none;display:inline;visibility:visible" d="M -19,412.9356 H 3.000001 v 1 H -19 Z" inkscape:connector-curvature="0" />
      </g>
      <g id="g20624" transform="matrix(0.4010153,-0.401016,0.5216785,0.5216801,1286.062,-85.44053)">
        <path id="path20626" style="fill:url(#linearGradient12061);fill-opacity:1;stroke:none" d="M -19,411.4564 H 3 v 4 h -22 z" inkscape:connector-curvature="0" />
        <path id="path20628" style="fill:url(#linearGradient12063);fill-opacity:1;fill-rule:nonzero;stroke:none;stroke-width:1;marker:none;display:inline;visibility:visible" d="M -19,412.9356 H 3.000002 v 1 H -19 Z" inkscape:connector-curvature="0" />
      </g>
      <g id="g20670" transform="matrix(0.401016,-0.4010153,-0.52168,-0.5216786,1712.355,351.0919)">
        <path id="path20672" style="fill:url(#linearGradient12065);fill-opacity:1;stroke:none" d="M -19,411.4564 H 3 v 4 h -22 z" inkscape:connector-curvature="0" />
        <path id="path20674" style="fill:url(#linearGradient20668);fill-opacity:1;fill-rule:nonzero;stroke:none;stroke-width:1;marker:none;display:inline;visibility:visible" d="M -19,412.9356 H 3.000001 v 1 H -19 Z" inkscape:connector-curvature="0" />
      </g>
      <g id="g20676" transform="matrix(0.4010153,0.401016,0.5216785,-0.5216801,1286.062,357.5087)">
        <path id="path20678" style="fill:url(#linearGradient20666);fill-opacity:1;stroke:none" d="M -19,411.4564 H 3 v 4 h -22 z" inkscape:connector-curvature="0" />
        <path id="path20680" style="fill:url(#linearGradient20664);fill-opacity:1;fill-rule:nonzero;stroke:none;stroke-width:1;marker:none;display:inline;visibility:visible" d="M -19,412.9356 H 3.000002 v 1 H -19 Z" inkscape:connector-curvature="0" />
      </g>
      <g id="g20690" transform="matrix(0.5791607,0,0,0.5780324,631.6914,19.59086)">
        <circle id="path20692" style="fill:url(#linearGradient20696);fill-opacity:1;fill-rule:nonzero;stroke:#3a7304;stroke-opacity:1;stroke-width:1.70351744;stroke-linecap:round;stroke-linejoin:round;stroke-miterlimit:4;stroke-dasharray:none;stroke-dashoffset:0;display:inline;visibility:visible" transform="matrix(1.014556,0,0,1.014565,-21.59559,-3.060751)" r="3.4375" cx="1492.187" cy="201.56261" />
        <circle id="path20694" style="fill:none;stroke:#ffffff;stroke-opacity:0.68877546;stroke-width:1.37499774;stroke-linecap:butt;stroke-linejoin:miter;stroke-miterlimit:4;stroke-dasharray:none;stroke-dashoffset:0;display:inline;visibility:visible" transform="matrix(0.6278689,0,0,0.6290944,555.4028,74.61518)" r="3.4375" cx="1492.187" cy="201.56261" />
      </g>
    </g>
  </g>
</svg>
