<?xml version="1.0" encoding="UTF-8" standalone="no"?>
<!-- Created with Inkscape (http://www.inkscape.org/) -->

<svg xmlns:dc="http://purl.org/dc/elements/1.1/" xmlns:cc="http://creativecommons.org/ns#" xmlns:rdf="http://www.w3.org/1999/02/22-rdf-syntax-ns#" xmlns:svg="http://www.w3.org/2000/svg" xmlns="http://www.w3.org/2000/svg" xmlns:xlink="http://www.w3.org/1999/xlink" xmlns:sodipodi="http://sodipodi.sourceforge.net/DTD/sodipodi-0.dtd" xmlns:inkscape="http://www.inkscape.org/namespaces/inkscape" id="SVGRoot" version="1.1" inkscape:version="0.92+devel (78cebbf91, 2017-07-21, custom)" width="16px" height="16px" viewBox="0 0 16 16" sodipodi:docname="stroke-to-path.svg">
  <sodipodi:namedview id="base" pagecolor="#ffffff" bordercolor="#666666" borderopacity="1.0" inkscape:pageopacity="0.0" inkscape:pageshadow="2" inkscape:zoom="16.0" inkscape:cx="8.0" inkscape:cy="8.0" inkscape:document-units="px" inkscape:current-layer="stroke_tocurve" inkscape:document-rotation="0" showgrid="false" inkscape:grid-bbox="true" />
  <defs id="defs10800">
    <radialGradient id="radialGradient12744" inkscape:collect="always" xlink:href="#linearGradient715" r="7.1080399" cx="631.75763" cy="158.9406" gradientUnits="userSpaceOnUse" gradientTransform="matrix(1.106723,0.1593608,-0.149875,1.040846,-43.64904,-106.7577)" fx="631.75763" fy="158.9406" />
    <linearGradient id="linearGradient715">
      <stop id="stop719" style="stop-color:#ff4f76;stop-opacity:1" offset="0" />
      <stop id="stop720" style="stop-color:#ee7f93;stop-opacity:1" offset="0.86810666" />
      <stop id="stop717" style="stop-color:#ddb0b0;stop-opacity:0" offset="1.0000000" />
    </linearGradient>
    <linearGradient id="linearGradient12151" inkscape:collect="always" xlink:href="#linearGradient473" x1="23.861931" y1="16.350491" x2="25.787519" y2="21.42198" gradientUnits="userSpaceOnUse" gradientTransform="matrix(0.519321,0,0,0.7887226,621.608,149.104)" />
    <linearGradient id="linearGradient473" inkscape:collect="always">
      <stop id="stop474" style="stop-color:#6b2b2b;stop-opacity:1" offset="0" />
      <stop id="stop475" style="stop-color:#6b2b2b;stop-opacity:0" offset="1" />
    </linearGradient>
    <linearGradient id="linearGradient12111" inkscape:collect="always" xlink:href="#linearGradient130" x1="22.490601" y1="12.3358" x2="17.80246" y2="7.6489449" gradientUnits="userSpaceOnUse" gradientTransform="matrix(0.6399117,0,0,0.6400883,621.608,144.104)" />
    <linearGradient id="linearGradient130">
      <stop id="stop131" style="stop-color:#ffffff;stop-opacity:1" offset="0.0000000" />
      <stop id="stop132" style="stop-color:#e95072;stop-opacity:1" offset="1.0000000" />
    </linearGradient>
    <linearGradient id="linearGradient10890" inkscape:collect="always" xlink:href="#linearGradient130" x1="22.490601" y1="12.3358" x2="17.80246" y2="7.6489449" gradientUnits="userSpaceOnUse" gradientTransform="matrix(0.6399117,0,0,0.6400883,621.608,144.104)" />
    <linearGradient id="linearGradient10892" inkscape:collect="always" xlink:href="#linearGradient130" x1="22.490601" y1="12.3358" x2="17.80246" y2="7.6489449" gradientUnits="userSpaceOnUse" gradientTransform="matrix(0.6399117,0,0,0.6400883,621.608,144.104)" />
    <linearGradient id="linearGradient10894" inkscape:collect="always" xlink:href="#linearGradient130" x1="22.490601" y1="12.3358" x2="17.80246" y2="7.6489449" gradientUnits="userSpaceOnUse" gradientTransform="matrix(0.6399117,0,0,0.6400883,621.608,144.104)" />
  </defs>
  <metadata id="metadata10803">
    <rdf:RDF>
      <cc:Work rdf:about="">
        <dc:format>image/svg+xml</dc:format>
        <dc:type rdf:resource="http://purl.org/dc/dcmitype/StillImage" />
        <dc:title></dc:title>
      </cc:Work>
    </rdf:RDF>
  </metadata>
  <g inkscape:label="Layer 1" id="layer1" inkscape:groupmode="layer">
    <g id="stroke_tocurve" style="display:inline" transform="translate(-624,-152)">
      <rect id="rect20101" style="opacity:0;fill:#000000;fill-opacity:1;fill-rule:evenodd;stroke-width:0.0520834" width="16" height="16" x="624" y="152" />
      <path id="path20125" style="opacity:0.56000001;fill:url(#radialGradient12744);fill-opacity:1;fill-rule:evenodd;stroke:none;stroke-opacity:1;stroke-width:1.00000003pt;stroke-linecap:butt;stroke-linejoin:miter" d="m 625.2652,163 c 2.5,-7.0659 7.2693,-7.4962 13.7062,-7.0966 l 0.5099,5.2091 c -8.7692,-1.1526 -9.621,3.7844 -10.5184,6.2128 z" inkscape:connector-curvature="0" sodipodi:nodetypes="ccccc" />
      <path id="path20127" style="fill:none;fill-opacity:0.21301802;fill-rule:evenodd;stroke:url(#linearGradient12151);stroke-opacity:1;stroke-width:0.63999999;stroke-linecap:round" d="m 639.5707,161.1229 c -3.3247,-0.4136 -5.7041,-0.0343 -7.3938,1.0495 -1.6897,1.0838 1.6897,-1.0838 0,0 -1.6897,1.0838 -2.6896,2.872 -3.2553,5.2762 m -3.6182,-4.3683 c 1.1314,-3.3941 2.8111,-5.3264 5.0652,-6.3347 2.2541,-1.0084 -2.2541,1.0083 0,0 2.2541,-1.0084 5.0825,-1.0927 8.5114,-0.7907" inkscape:connector-curvature="0" sodipodi:nodetypes="cccccccc" />
      <g inkscape:label="#g12097" id="convert-node" transform="translate(0,5)">
        <rect id="rect20115" style="opacity:0.32000002;fill:#6b2b2b;fill-opacity:1;fill-rule:evenodd;stroke:#6b2b2b;stroke-opacity:1;stroke-width:0.79839343" width="2.201643" height="2.201612" x="634.39917" y="150.3992" />
        <rect id="rect20135" style="opacity:1;fill:url(#linearGradient10890);fill-opacity:1;fill-rule:evenodd;stroke:#6b2b2b;stroke-opacity:1;stroke-width:0.80148917;stroke-linecap:butt;stroke-linejoin:miter;stroke-miterlimit:4;stroke-dasharray:none;stroke-dashoffset:0;display:inline;visibility:visible" width="2.201633" height="2.201618" x="633.39917" y="149.3992" />
      </g>
      <g inkscape:label="#g12097" id="g12113" transform="translate(-7,9)">
        <rect id="rect12116" style="opacity:0.32000002;fill:#6b2b2b;fill-opacity:1;fill-rule:evenodd;stroke:#6b2b2b;stroke-opacity:1;stroke-width:0.79839343" width="2.201643" height="2.201612" x="634.39917" y="150.3992" />
        <rect id="rect12118" style="opacity:1;fill:url(#linearGradient10892);fill-opacity:1;fill-rule:evenodd;stroke:#6b2b2b;stroke-opacity:1;stroke-width:0.80148917;stroke-linecap:butt;stroke-linejoin:miter;stroke-miterlimit:4;stroke-dasharray:none;stroke-dashoffset:0;display:inline;visibility:visible" width="2.201633" height="2.201618" x="633.39917" y="149.3992" />
      </g>
      <g inkscape:label="#g12097" id="g12125" transform="translate(-4,13)">
        <rect id="rect12127" style="opacity:0.32000002;fill:#6b2b2b;fill-opacity:1;fill-rule:evenodd;stroke:#6b2b2b;stroke-opacity:1;stroke-width:0.79839343" width="2.201643" height="2.201612" x="634.39917" y="150.3992" />
        <rect id="rect12129" style="opacity:1;fill:url(#linearGradient10894);fill-opacity:1;fill-rule:evenodd;stroke:#6b2b2b;stroke-opacity:1;stroke-width:0.80148917;stroke-linecap:butt;stroke-linejoin:miter;stroke-miterlimit:4;stroke-dasharray:none;stroke-dashoffset:0;display:inline;visibility:visible" width="2.201633" height="2.201618" x="633.39917" y="149.3992" />
      </g>
      <g inkscape:label="#g12097" id="g12140" transform="translate(2,10)">
        <rect id="rect12143" style="opacity:0.32000002;fill:#6b2b2b;fill-opacity:1;fill-rule:evenodd;stroke:#6b2b2b;stroke-opacity:1;stroke-width:0.79839343" width="2.201643" height="2.201612" x="634.39917" y="150.3992" />
        <rect id="rect12145" style="opacity:1;fill:url(#linearGradient12111);fill-opacity:1;fill-rule:evenodd;stroke:#6b2b2b;stroke-opacity:1;stroke-width:0.80148917;stroke-linecap:butt;stroke-linejoin:miter;stroke-miterlimit:4;stroke-dasharray:none;stroke-dashoffset:0;display:inline;visibility:visible" width="2.201633" height="2.201618" x="633.39917" y="149.3992" />
      </g>
    </g>
  </g>
</svg>
