<?xml version="1.0" encoding="UTF-8" standalone="no"?>
<!-- Created with Inkscape (http://www.inkscape.org/) -->

<svg xmlns:dc="http://purl.org/dc/elements/1.1/" xmlns:cc="http://creativecommons.org/ns#" xmlns:rdf="http://www.w3.org/1999/02/22-rdf-syntax-ns#" xmlns:svg="http://www.w3.org/2000/svg" xmlns="http://www.w3.org/2000/svg" xmlns:xlink="http://www.w3.org/1999/xlink" xmlns:sodipodi="http://sodipodi.sourceforge.net/DTD/sodipodi-0.dtd" xmlns:inkscape="http://www.inkscape.org/namespaces/inkscape" id="SVGRoot" version="1.1" inkscape:version="0.92+devel (78cebbf91, 2017-07-21, custom)" width="24px" height="24px" viewBox="0 0 24 24" sodipodi:docname="transform-scale-horizontal.svg">
  <sodipodi:namedview id="base" pagecolor="#ffffff" bordercolor="#666666" borderopacity="1.0" inkscape:pageopacity="0.0" inkscape:pageshadow="2" inkscape:zoom="10.6666666667" inkscape:cx="12.0" inkscape:cy="12.0" inkscape:document-units="px" inkscape:current-layer="transform_scale_hor" inkscape:document-rotation="0" showgrid="false" inkscape:grid-bbox="true">
    <inkscape:grid type="xygrid" id="grid11133" />
  </sodipodi:namedview>
  <defs id="defs11061">
    <radialGradient id="radialGradient9172" inkscape:collect="always" xlink:href="#linearGradient10735" r="8" cx="83.242722" cy="228" gradientUnits="userSpaceOnUse" gradientTransform="translate(48.00002,-24.0001)" fx="83.242722" fy="228" />
    <linearGradient id="linearGradient10735">
      <stop id="stop10737" style="stop-color:#c0c0c0;stop-opacity:0" offset="0" />
      <stop id="stop10739" style="stop-color:#c0c0c0;stop-opacity:0" offset="1" />
    </linearGradient>
    <filter id="filter8871" inkscape:collect="always" width="1.241809" height="1.656339" x="-0.1209045" y="-0.32816929">
      <feGaussianBlur id="feGaussianBlur8873" inkscape:collect="always" stdDeviation="0.95716044" />
    </filter>
    <linearGradient id="linearGradient9174" inkscape:collect="always" xlink:href="#linearGradient8471" x1="513" y1="1365" x2="513" y2="1375" gradientUnits="userSpaceOnUse" gradientTransform="matrix(1.454546,0,0,1.271104,-1267.591,-3034.903)" />
    <linearGradient id="linearGradient8471">
      <stop id="stop8473" style="stop-color:#5382b9;stop-opacity:1" offset="0" />
      <stop id="stop8475" style="stop-color:#3565a5;stop-opacity:1" offset="1" />
    </linearGradient>
    <linearGradient id="linearGradient9176" inkscape:collect="always" xlink:href="#linearGradient8789" x1="514" y1="1284" x2="509" y2="1284" gradientUnits="userSpaceOnUse" />
    <linearGradient id="linearGradient8789" inkscape:collect="always">
      <stop id="stop8791" style="stop-color:#ffffff;stop-opacity:1" offset="0" />
      <stop id="stop8793" style="stop-color:#ffffff;stop-opacity:0" offset="1" />
    </linearGradient>
    <linearGradient id="linearGradient9178" inkscape:collect="always" xlink:href="#linearGradient8781" x1="514" y1="1284" x2="509" y2="1284" gradientUnits="userSpaceOnUse" />
    <linearGradient id="linearGradient8781" inkscape:collect="always">
      <stop id="stop8783" style="stop-color:#3465a4;stop-opacity:1" offset="0" />
      <stop id="stop8785" style="stop-color:#3465a4;stop-opacity:0" offset="1" />
    </linearGradient>
  </defs>
  <metadata id="metadata11064">
    <rdf:RDF>
      <cc:Work rdf:about="">
        <dc:format>image/svg+xml</dc:format>
        <dc:type rdf:resource="http://purl.org/dc/dcmitype/StillImage" />
        <dc:title></dc:title>
      </cc:Work>
    </rdf:RDF>
  </metadata>
  <g inkscape:label="Layer 1" id="layer1" inkscape:groupmode="layer">
    <g inkscape:label="#transform_scale_hor" id="transform_scale_hor" style="opacity:1;display:inline" transform="translate(-504,-1280)">
      <rect id="rect8901" style="opacity:1;fill:url(#radialGradient9172);fill-opacity:1;fill-rule:nonzero;stroke:none;stroke-opacity:1;stroke-width:1;stroke-linecap:round;stroke-linejoin:miter;stroke-miterlimit:4;stroke-dasharray:none;stroke-dashoffset:0;display:inline;visibility:visible" width="24" height="24" x="504" y="1280" />
      <ellipse id="path8797" style="opacity:1;fill:#000000;fill-opacity:0.30845774;fill-rule:evenodd;stroke:none;stroke-opacity:1;stroke-width:1;stroke-linecap:square;stroke-linejoin:round;stroke-miterlimit:0;stroke-dasharray:none;stroke-dashoffset:0;display:inline;visibility:visible;filter:url(#filter8871)" transform="matrix(0.9508347,0,0,0.7142773,48.68102,288.4405)" rx="9.5" ry="3.5" cx="492.5" cy="1415.5" />
      <rect id="rect8773" style="opacity:1;fill:url(#linearGradient9174);fill-opacity:1;fill-rule:evenodd;stroke:#204a87;stroke-opacity:1;stroke-width:1;stroke-linecap:square;stroke-linejoin:round;stroke-miterlimit:0;stroke-dasharray:none;stroke-dashoffset:0;display:inline;visibility:visible" width="16" height="13.98214" transform="scale(-1)" x="-526.5" y="-1300.4821" />
      <rect id="rect8775" style="opacity:1;fill:none;fill-opacity:1;fill-rule:evenodd;stroke:#ffffff;stroke-opacity:0.2;stroke-width:1;stroke-linecap:square;stroke-linejoin:round;stroke-miterlimit:0;stroke-dasharray:none;stroke-dashoffset:0;display:inline;visibility:visible" width="13.99999" height="12.00005" transform="scale(-1)" x="-525.5" y="-1299.5" />
      <rect id="rect8763" style="opacity:1;fill:#83a4d0;fill-opacity:1;fill-rule:evenodd;stroke:#204a87;stroke-opacity:1;stroke-width:0.99999988;stroke-linecap:square;stroke-linejoin:round;stroke-miterlimit:0;stroke-dasharray:none;stroke-dashoffset:0;display:inline;visibility:visible" width="8.062499" height="8.0553217" x="505.5" y="1281.625" />
      <rect id="rect8765" style="opacity:1;fill:none;fill-opacity:1;fill-rule:evenodd;stroke:#ffffff;stroke-opacity:0.35323385;stroke-width:1;stroke-linecap:square;stroke-linejoin:round;stroke-miterlimit:0;stroke-dasharray:none;stroke-dashoffset:0;display:inline;visibility:visible" width="5.999939" height="5.8125" x="506.5" y="1282.688" />
      <path id="path8779" style="opacity:1;fill:url(#linearGradient9176);fill-opacity:1;fill-rule:evenodd;stroke:url(#linearGradient9178);stroke-opacity:1;stroke-width:1px;stroke-linecap:butt;stroke-linejoin:miter;display:inline" d="m 520.5,1284.5 h -11 v 2 h 11 v 2 h 1 l 3,-3 -3,-3 h -1 z" inkscape:connector-curvature="0" sodipodi:nodetypes="cccccccccc" />
    </g>
  </g>
</svg>
